<?xml version="1.0" encoding="UTF-8"?>
<session version="1.0">
<refactoring accessors="true" comment="Delete element from project &apos;spring1&apos;&#x0D;&#x0A;- Original project: &apos;spring1&apos;&#x0D;&#x0A;- Original element: &apos;index.jsp&apos;" description="Delete element" element1="src/main/webapp/index.jsp" elements="0" flags="589830" id="org.eclipse.jdt.ui.delete" resources="1" stamp="1688722310233" subPackages="false" version="1.0"/>
</session>