<?xml version="1.0" encoding="UTF-8"?>
<session version="1.0">
<refactoring comment="Copy element &apos;webapp&apos; to &apos;main&apos;&#x0D;&#x0A;- Original project: &apos;springmvc&apos;&#x0D;&#x0A;- Destination element: &apos;main&apos;&#x0D;&#x0A;- Original element: &apos;webapp&apos;" description="Copy folder" element1="src/main/webapp" files="0" flags="589830" folders="1" id="org.eclipse.jdt.ui.copy" policy="org.eclipse.jdt.ui.copyResources" stamp="1688366087388" target="/springmvc1/src/main" units="0" version="1.0"/>
</session>