<?xml version="1.0" encoding="UTF-8"?>
<session version="1.0">
<refactoring comment="Copy 4 packages to &apos;Starter/src/main/java&apos;&#x0D;&#x0A;- Original project: &apos;springmvc5&apos;&#x0D;&#x0A;- Destination element: &apos;Starter/src/main/java&apos;&#x0D;&#x0A;- Original elements:&#x0D;&#x0A;     springmvc5/src/main/java/com.ashish.Entity&#x0D;&#x0A;     springmvc5/src/main/java/com.ashish.dao&#x0D;&#x0A;     springmvc5/src/main/java/com.ashish.config&#x0D;&#x0A;     springmvc5/src/main/java/com.ashish.controller" description="Copy packages" destination="=Starter/src\/main\/java=/optional=/true=/=/maven.pomderived=/true=/" element1="/src\/main\/java=/optional=/true=/=/maven.pomderived=/true=/&lt;com.ashish.Entity" element2="/src\/main\/java=/optional=/true=/=/maven.pomderived=/true=/&lt;com.ashish.dao" element3="/src\/main\/java=/optional=/true=/=/maven.pomderived=/true=/&lt;com.ashish.config" element4="/src\/main\/java=/optional=/true=/=/maven.pomderived=/true=/&lt;com.ashish.controller" flags="589830" fragments="4" id="org.eclipse.jdt.ui.copy" policy="org.eclipse.jdt.ui.copyPackages" stamp="1689076609749" version="1.0"/>
</session>