127.0.0.1 - - [03/Jul/2023:11:20:03 +0530] "GET / HTTP/1.1" 404 751
127.0.0.1 - - [03/Jul/2023:11:20:03 +0530] "GET /springmvc/WEB-INF/views/index.jsp HTTP/1.1" 404 775
127.0.0.1 - - [03/Jul/2023:11:21:48 +0530] "GET /springmvc/WEB-INF/views/index.jsp HTTP/1.1" 404 775
127.0.0.1 - - [03/Jul/2023:11:22:19 +0530] "GET /springmvc/home HTTP/1.1" 404 769
127.0.0.1 - - [03/Jul/2023:11:22:24 +0530] "GET /springmvc/about HTTP/1.1" 404 770
127.0.0.1 - - [03/Jul/2023:11:22:33 +0530] "GET /springmvc/help HTTP/1.1" 404 769
127.0.0.1 - - [03/Jul/2023:11:25:53 +0530] "GET /springmvc/home HTTP/1.1" 404 769
127.0.0.1 - - [03/Jul/2023:11:26:44 +0530] "GET /springmvc/contact HTTP/1.1" 404 772
127.0.0.1 - - [03/Jul/2023:11:26:48 +0530] "GET /springmvc/contact HTTP/1.1" 404 772
127.0.0.1 - - [03/Jul/2023:11:27:34 +0530] "GET / HTTP/1.1" 404 751
127.0.0.1 - - [03/Jul/2023:11:27:35 +0530] "GET /springmvc/WEB-INF/views/index.jsp HTTP/1.1" 404 775
127.0.0.1 - - [03/Jul/2023:11:37:01 +0530] "GET /springmvc/WEB-INF/views/index.jsp HTTP/1.1" 404 775
127.0.0.1 - - [03/Jul/2023:11:37:03 +0530] "GET /springmvc/WEB-INF/views/index.jsp HTTP/1.1" 404 775
127.0.0.1 - - [03/Jul/2023:11:37:11 +0530] "GET /springmvc/contact HTTP/1.1" 404 772
127.0.0.1 - - [03/Jul/2023:11:37:47 +0530] "GET / HTTP/1.1" 404 751
127.0.0.1 - - [03/Jul/2023:11:37:48 +0530] "GET /springmvc/WEB-INF/views/index.jsp HTTP/1.1" 404 682
127.0.0.1 - - [03/Jul/2023:11:37:59 +0530] "GET /springmvc/contact HTTP/1.1" 500 3492
127.0.0.1 - - [03/Jul/2023:11:40:32 +0530] "GET / HTTP/1.1" 404 751
127.0.0.1 - - [03/Jul/2023:11:40:33 +0530] "GET /springmvc/WEB-INF/views/index.jsp HTTP/1.1" 404 682
127.0.0.1 - - [03/Jul/2023:11:40:44 +0530] "GET /springmvc/contact.jsp HTTP/1.1" 404 741
127.0.0.1 - - [03/Jul/2023:11:40:49 +0530] "GET /springmvc/contact HTTP/1.1" 500 3492
127.0.0.1 - - [03/Jul/2023:11:44:16 +0530] "GET / HTTP/1.1" 404 751
127.0.0.1 - - [03/Jul/2023:11:44:16 +0530] "GET /springmvc/WEB-INF/views/index.jsp HTTP/1.1" 404 682
127.0.0.1 - - [03/Jul/2023:11:44:27 +0530] "GET /springmvc/contact HTTP/1.1" 500 3492
127.0.0.1 - - [03/Jul/2023:11:46:54 +0530] "GET / HTTP/1.1" 404 751
127.0.0.1 - - [03/Jul/2023:11:46:54 +0530] "GET /springmvc/WEB-INF/views/index.jsp HTTP/1.1" 404 682
127.0.0.1 - - [03/Jul/2023:11:47:02 +0530] "GET /springmvc/contact HTTP/1.1" 500 3492
127.0.0.1 - - [03/Jul/2023:11:47:21 +0530] "GET /springmvc/WEB-INF/views/index.jsp HTTP/1.1" 404 682
127.0.0.1 - - [03/Jul/2023:11:47:30 +0530] "GET /springmvc/contact HTTP/1.1" 404 682
127.0.0.1 - - [03/Jul/2023:11:47:58 +0530] "GET /springmvc/main/webapp/WEB-INF/views/contact.jsp HTTP/1.1" 404 783
