127.0.0.1 - - [30/Mar/2023:12:39:41 +0530] "GET / HTTP/1.1" 404 751
127.0.0.1 - - [30/Mar/2023:12:39:43 +0530] "GET /ImageUploadProject/ HTTP/1.1" 200 140
127.0.0.1 - - [30/Mar/2023:12:42:00 +0530] "GET /ImageUploadProject/ HTTP/1.1" 200 291
127.0.0.1 - - [30/Mar/2023:13:05:58 +0530] "GET / HTTP/1.1" 404 751
127.0.0.1 - - [30/Mar/2023:13:06:00 +0530] "GET /ImageUploadProject/index.jsp HTTP/1.1" 200 386
127.0.0.1 - - [30/Mar/2023:13:06:15 +0530] "POST /ImageUploadProject/AddImage HTTP/1.1" 200 -
127.0.0.1 - - [30/Mar/2023:13:09:46 +0530] "GET / HTTP/1.1" 404 751
127.0.0.1 - - [30/Mar/2023:13:09:48 +0530] "GET /ImageUploadProject/index.jsp HTTP/1.1" 200 398
127.0.0.1 - - [30/Mar/2023:13:10:00 +0530] "POST /ImageUploadProject/AddImage HTTP/1.1" 200 -
127.0.0.1 - - [30/Mar/2023:13:13:30 +0530] "GET / HTTP/1.1" 404 751
127.0.0.1 - - [30/Mar/2023:13:13:31 +0530] "GET /ImageUploadProject/index.jsp HTTP/1.1" 200 406
127.0.0.1 - - [30/Mar/2023:13:13:47 +0530] "POST /ImageUploadProject/AddImage HTTP/1.1" 200 -
127.0.0.1 - - [30/Mar/2023:13:14:43 +0530] "GET /ImageUploadProject/ HTTP/1.1" 200 406
127.0.0.1 - - [30/Mar/2023:13:14:50 +0530] "POST /ImageUploadProject/AddImage HTTP/1.1" 200 -
127.0.0.1 - - [30/Mar/2023:13:14:56 +0530] "GET /ImageUploadProject/ HTTP/1.1" 200 406
127.0.0.1 - - [30/Mar/2023:13:19:54 +0530] "GET /ImageUploadProject/ HTTP/1.1" 200 406
127.0.0.1 - - [30/Mar/2023:13:20:11 +0530] "POST /ImageUploadProject/AddImage HTTP/1.1" 200 -
127.0.0.1 - - [30/Mar/2023:13:20:39 +0530] "GET /ImageUploadProject/ HTTP/1.1" 200 406
127.0.0.1 - - [30/Mar/2023:13:20:47 +0530] "POST /ImageUploadProject/AddImage HTTP/1.1" 200 -
127.0.0.1 - - [30/Mar/2023:13:22:02 +0530] "GET /ImageUploadProject/ HTTP/1.1" 200 406
127.0.0.1 - - [30/Mar/2023:13:22:12 +0530] "POST /ImageUploadProject/AddImage HTTP/1.1" 200 -
127.0.0.1 - - [30/Mar/2023:13:22:52 +0530] "POST /ImageUploadProject/AddImage HTTP/1.1" 200 -
127.0.0.1 - - [30/Mar/2023:13:38:30 +0530] "GET /ImageUploadProject/ HTTP/1.1" 200 406
127.0.0.1 - - [30/Mar/2023:13:38:43 +0530] "POST /ImageUploadProject/AddImage HTTP/1.1" 200 -
127.0.0.1 - - [30/Mar/2023:13:48:33 +0530] "GET / HTTP/1.1" 404 751
127.0.0.1 - - [30/Mar/2023:13:48:35 +0530] "GET /ImageUploadProject/displayImage.jsp HTTP/1.1" 200 570
127.0.0.1 - - [30/Mar/2023:13:49:22 +0530] "GET /ImageUploadProject/displayImage.jsp HTTP/1.1" 200 570
127.0.0.1 - - [30/Mar/2023:13:49:30 +0530] "POST /ImageUploadProject/DisplayServlet HTTP/1.1" 200 -
127.0.0.1 - - [30/Mar/2023:15:10:35 +0530] "GET / HTTP/1.1" 404 751
127.0.0.1 - - [30/Mar/2023:15:10:36 +0530] "GET /ImageUploadProject/DisplayServlet HTTP/1.1" 200 30
127.0.0.1 - - [30/Mar/2023:15:11:46 +0530] "GET / HTTP/1.1" 404 751
127.0.0.1 - - [30/Mar/2023:15:11:48 +0530] "GET /ImageUploadProject/displayImage.jsp HTTP/1.1" 200 635
127.0.0.1 - - [30/Mar/2023:15:11:52 +0530] "POST /ImageUploadProject/DisplayServlet HTTP/1.1" 200 635
127.0.0.1 - - [30/Mar/2023:15:12:53 +0530] "POST /ImageUploadProject/DisplayServlet HTTP/1.1" 200 635
127.0.0.1 - - [30/Mar/2023:15:12:57 +0530] "POST /ImageUploadProject/DisplayServlet HTTP/1.1" 200 635
127.0.0.1 - - [30/Mar/2023:15:13:06 +0530] "POST /ImageUploadProject/DisplayServlet HTTP/1.1" 200 635
127.0.0.1 - - [30/Mar/2023:15:13:11 +0530] "POST /ImageUploadProject/DisplayServlet HTTP/1.1" 200 635
127.0.0.1 - - [30/Mar/2023:15:13:42 +0530] "POST /ImageUploadProject/DisplayServlet HTTP/1.1" 200 635
127.0.0.1 - - [30/Mar/2023:15:13:46 +0530] "POST /ImageUploadProject/DisplayServlet HTTP/1.1" 200 635
127.0.0.1 - - [30/Mar/2023:15:14:52 +0530] "POST /ImageUploadProject/DisplayServlet HTTP/1.1" 200 635
127.0.0.1 - - [30/Mar/2023:15:14:58 +0530] "POST /ImageUploadProject/DisplayServlet HTTP/1.1" 200 635
127.0.0.1 - - [30/Mar/2023:15:15:15 +0530] "POST /ImageUploadProject/DisplayServlet HTTP/1.1" 200 635
127.0.0.1 - - [30/Mar/2023:15:30:00 +0530] "GET / HTTP/1.1" 404 751
127.0.0.1 - - [30/Mar/2023:15:30:02 +0530] "GET /ImageUploadProject/displayImage.jsp HTTP/1.1" 200 704
127.0.0.1 - - [30/Mar/2023:15:30:15 +0530] "POST /ImageUploadProject/DisplayServlet HTTP/1.1" 200 701
127.0.0.1 - - [30/Mar/2023:15:30:22 +0530] "POST /ImageUploadProject/DisplayServlet HTTP/1.1" 200 701
127.0.0.1 - - [30/Mar/2023:15:31:11 +0530] "POST /ImageUploadProject/DisplayServlet HTTP/1.1" 200 701
127.0.0.1 - - [30/Mar/2023:15:31:16 +0530] "POST /ImageUploadProject/DisplayServlet HTTP/1.1" 200 701
127.0.0.1 - - [30/Mar/2023:15:36:07 +0530] "POST /ImageUploadProject/DisplayServlet HTTP/1.1" 200 701
127.0.0.1 - - [30/Mar/2023:15:36:12 +0530] "POST /ImageUploadProject/DisplayServlet HTTP/1.1" 200 701
127.0.0.1 - - [30/Mar/2023:15:39:00 +0530] "POST /ImageUploadProject/DisplayServlet HTTP/1.1" 200 733
127.0.0.1 - - [30/Mar/2023:15:39:03 +0530] "POST /ImageUploadProject/DisplayServlet HTTP/1.1" 200 733
127.0.0.1 - - [30/Mar/2023:15:39:34 +0530] "POST /ImageUploadProject/DisplayServlet HTTP/1.1" 200 733
127.0.0.1 - - [30/Mar/2023:15:39:38 +0530] "POST /ImageUploadProject/DisplayServlet HTTP/1.1" 200 733
127.0.0.1 - - [30/Mar/2023:15:39:45 +0530] "POST /ImageUploadProject/DisplayServlet HTTP/1.1" 200 733
127.0.0.1 - - [30/Mar/2023:15:40:41 +0530] "POST /ImageUploadProject/DisplayServlet HTTP/1.1" 200 733
127.0.0.1 - - [30/Mar/2023:15:40:45 +0530] "POST /ImageUploadProject/DisplayServlet HTTP/1.1" 200 733
127.0.0.1 - - [30/Mar/2023:15:42:08 +0530] "POST /ImageUploadProject/DisplayServlet HTTP/1.1" 200 734
127.0.0.1 - - [30/Mar/2023:15:42:11 +0530] "POST /ImageUploadProject/DisplayServlet HTTP/1.1" 200 734
127.0.0.1 - - [30/Mar/2023:15:42:15 +0530] "POST /ImageUploadProject/DisplayServlet HTTP/1.1" 200 734
127.0.0.1 - - [30/Mar/2023:15:43:48 +0530] "POST /ImageUploadProject/DisplayServlet HTTP/1.1" 200 734
127.0.0.1 - - [30/Mar/2023:15:43:54 +0530] "POST /ImageUploadProject/DisplayServlet HTTP/1.1" 200 734
127.0.0.1 - - [30/Mar/2023:15:44:02 +0530] "POST /ImageUploadProject/DisplayServlet HTTP/1.1" 200 734
127.0.0.1 - - [30/Mar/2023:17:11:21 +0530] "GET / HTTP/1.1" 404 751
127.0.0.1 - - [30/Mar/2023:17:11:22 +0530] "GET /BankingApplication/index.jsp HTTP/1.1" 500 2574
127.0.0.1 - - [30/Mar/2023:17:12:31 +0530] "GET /BankingApplication/index.jsp HTTP/1.1" 200 105107
127.0.0.1 - - [30/Mar/2023:17:12:31 +0530] "GET /BankingApplication/fonts/font-awesome-4.7.0/css/font-awesome.min.css HTTP/1.1" 404 835
127.0.0.1 - - [30/Mar/2023:17:12:31 +0530] "GET /BankingApplication/vendor/bootstrap/css/bootstrap.min.css HTTP/1.1" 404 824
127.0.0.1 - - [30/Mar/2023:17:12:31 +0530] "GET /BankingApplication/vendor/animate/animate.css HTTP/1.1" 404 808
127.0.0.1 - - [30/Mar/2023:17:12:31 +0530] "GET /BankingApplication/vendor/select2/select2.min.css HTTP/1.1" 404 812
127.0.0.1 - - [30/Mar/2023:17:12:31 +0530] "GET /BankingApplication/fonts/iconic/css/material-design-iconic-font.min.css HTTP/1.1" 404 838
127.0.0.1 - - [30/Mar/2023:17:12:31 +0530] "GET /BankingApplication/vendor/css-hamburgers/hamburgers.min.css HTTP/1.1" 404 822
127.0.0.1 - - [30/Mar/2023:17:12:31 +0530] "GET /BankingApplication/vendor/animsition/css/animsition.min.css HTTP/1.1" 404 826
127.0.0.1 - - [30/Mar/2023:17:12:31 +0530] "GET /BankingApplication/vendor/animsition/js/animsition.min.js HTTP/1.1" 404 824
127.0.0.1 - - [30/Mar/2023:17:12:31 +0530] "GET /BankingApplication/vendor/daterangepicker/daterangepicker.css HTTP/1.1" 404 824
127.0.0.1 - - [30/Mar/2023:17:12:31 +0530] "GET /BankingApplication/vendor/jquery/jquery-3.2.1.min.js HTTP/1.1" 404 815
127.0.0.1 - - [30/Mar/2023:17:12:31 +0530] "GET /BankingApplication/vendor/bootstrap/js/popper.js HTTP/1.1" 404 815
127.0.0.1 - - [30/Mar/2023:17:12:31 +0530] "GET /BankingApplication/vendor/bootstrap/js/bootstrap.min.js HTTP/1.1" 404 822
127.0.0.1 - - [30/Mar/2023:17:12:31 +0530] "GET /BankingApplication/vendor/daterangepicker/moment.min.js HTTP/1.1" 404 818
127.0.0.1 - - [30/Mar/2023:17:12:31 +0530] "GET /BankingApplication/vendor/daterangepicker/daterangepicker.js HTTP/1.1" 404 823
127.0.0.1 - - [30/Mar/2023:17:12:31 +0530] "GET /BankingApplication/vendor/countdowntime/countdowntime.js HTTP/1.1" 404 819
127.0.0.1 - - [30/Mar/2023:17:12:31 +0530] "GET /BankingApplication/vendor/select2/select2.min.js HTTP/1.1" 404 811
127.0.0.1 - - [30/Mar/2023:17:12:31 +0530] "GET /BankingApplication/vendor/animsition/js/animsition.min.js HTTP/1.1" 404 824
127.0.0.1 - - [30/Mar/2023:17:12:31 +0530] "GET /fonts/poppins/Poppins-Regular.ttf HTTP/1.1" 404 792
127.0.0.1 - - [30/Mar/2023:17:12:31 +0530] "GET /fonts/poppins/Poppins-Medium.ttf HTTP/1.1" 404 791
127.0.0.1 - - [30/Mar/2023:17:12:31 +0530] "GET /BankingApplication/vendor/bootstrap/js/popper.js HTTP/1.1" 404 815
127.0.0.1 - - [30/Mar/2023:17:12:31 +0530] "GET /BankingApplication/vendor/bootstrap/js/bootstrap.min.js HTTP/1.1" 404 822
127.0.0.1 - - [30/Mar/2023:17:12:31 +0530] "GET /BankingApplication/vendor/select2/select2.min.js HTTP/1.1" 404 811
127.0.0.1 - - [30/Mar/2023:17:12:31 +0530] "GET /BankingApplication/vendor/daterangepicker/moment.min.js HTTP/1.1" 404 818
127.0.0.1 - - [30/Mar/2023:17:12:31 +0530] "GET /BankingApplication/vendor/daterangepicker/daterangepicker.js HTTP/1.1" 404 823
127.0.0.1 - - [30/Mar/2023:17:12:31 +0530] "GET /BankingApplication/vendor/countdowntime/countdowntime.js HTTP/1.1" 404 819
127.0.0.1 - - [30/Mar/2023:17:12:31 +0530] "GET /BankingApplication/images/icons/favicon.ico HTTP/1.1" 404 806
127.0.0.1 - - [30/Mar/2023:17:13:12 +0530] "GET /BankingApplication/index.jsp HTTP/1.1" 200 105154
127.0.0.1 - - [30/Mar/2023:17:13:12 +0530] "GET /BankingApplication/vendor/bootstrap/css/bootstrap.min.css HTTP/1.1" 404 824
127.0.0.1 - - [30/Mar/2023:17:13:12 +0530] "GET /BankingApplication/fonts/font-awesome-4.7.0/css/font-awesome.min.css HTTP/1.1" 404 835
127.0.0.1 - - [30/Mar/2023:17:13:12 +0530] "GET /BankingApplication/vendor/animate/animate.css HTTP/1.1" 404 808
127.0.0.1 - - [30/Mar/2023:17:13:12 +0530] "GET /BankingApplication/vendor/jquery/jquery-3.2.1.min.js HTTP/1.1" 404 815
127.0.0.1 - - [30/Mar/2023:17:13:12 +0530] "GET /BankingApplication/vendor/animsition/css/animsition.min.css HTTP/1.1" 404 826
127.0.0.1 - - [30/Mar/2023:17:13:12 +0530] "GET /BankingApplication/vendor/select2/select2.min.css HTTP/1.1" 404 812
127.0.0.1 - - [30/Mar/2023:17:13:12 +0530] "GET /BankingApplication/vendor/daterangepicker/daterangepicker.css HTTP/1.1" 404 824
127.0.0.1 - - [30/Mar/2023:17:13:12 +0530] "GET /BankingApplication/fonts/iconic/css/material-design-iconic-font.min.css HTTP/1.1" 404 838
127.0.0.1 - - [30/Mar/2023:17:13:12 +0530] "GET /BankingApplication/vendor/bootstrap/js/popper.js HTTP/1.1" 404 815
127.0.0.1 - - [30/Mar/2023:17:13:12 +0530] "GET /BankingApplication/vendor/animsition/js/animsition.min.js HTTP/1.1" 404 824
127.0.0.1 - - [30/Mar/2023:17:13:12 +0530] "GET /BankingApplication/vendor/css-hamburgers/hamburgers.min.css HTTP/1.1" 404 822
127.0.0.1 - - [30/Mar/2023:17:13:12 +0530] "GET /BankingApplication/vendor/bootstrap/js/bootstrap.min.js HTTP/1.1" 404 822
127.0.0.1 - - [30/Mar/2023:17:13:12 +0530] "GET /BankingApplication/vendor/select2/select2.min.js HTTP/1.1" 404 811
127.0.0.1 - - [30/Mar/2023:17:13:12 +0530] "GET /BankingApplication/vendor/daterangepicker/daterangepicker.js HTTP/1.1" 404 823
127.0.0.1 - - [30/Mar/2023:17:13:12 +0530] "GET /BankingApplication/vendor/countdowntime/countdowntime.js HTTP/1.1" 404 819
127.0.0.1 - - [30/Mar/2023:17:13:12 +0530] "GET /BankingApplication/vendor/daterangepicker/moment.min.js HTTP/1.1" 404 818
127.0.0.1 - - [30/Mar/2023:17:13:12 +0530] "GET /BankingApplication/vendor/bootstrap/js/popper.js HTTP/1.1" 404 815
127.0.0.1 - - [30/Mar/2023:17:13:12 +0530] "GET /fonts/poppins/Poppins-Regular.ttf HTTP/1.1" 404 792
127.0.0.1 - - [30/Mar/2023:17:13:12 +0530] "GET /fonts/poppins/Poppins-Medium.ttf HTTP/1.1" 404 791
127.0.0.1 - - [30/Mar/2023:17:13:12 +0530] "GET /BankingApplication/vendor/bootstrap/js/bootstrap.min.js HTTP/1.1" 404 822
127.0.0.1 - - [30/Mar/2023:17:13:12 +0530] "GET /BankingApplication/vendor/select2/select2.min.js HTTP/1.1" 404 811
127.0.0.1 - - [30/Mar/2023:17:13:12 +0530] "GET /BankingApplication/vendor/daterangepicker/moment.min.js HTTP/1.1" 404 818
127.0.0.1 - - [30/Mar/2023:17:13:12 +0530] "GET /BankingApplication/vendor/daterangepicker/daterangepicker.js HTTP/1.1" 404 823
127.0.0.1 - - [30/Mar/2023:17:13:12 +0530] "GET /BankingApplication/vendor/countdowntime/countdowntime.js HTTP/1.1" 404 819
127.0.0.1 - - [30/Mar/2023:17:13:42 +0530] "GET /BankingApplication/index.jsp HTTP/1.1" 200 105151
127.0.0.1 - - [30/Mar/2023:17:13:43 +0530] "GET /BankingApplication/vendor/bootstrap/css/bootstrap.min.css HTTP/1.1" 404 824
127.0.0.1 - - [30/Mar/2023:17:13:43 +0530] "GET /BankingApplication/fonts/font-awesome-4.7.0/css/font-awesome.min.css HTTP/1.1" 404 835
127.0.0.1 - - [30/Mar/2023:17:13:43 +0530] "GET /BankingApplication/fonts/iconic/css/material-design-iconic-font.min.css HTTP/1.1" 404 838
127.0.0.1 - - [30/Mar/2023:17:13:43 +0530] "GET /BankingApplication/vendor/select2/select2.min.css HTTP/1.1" 404 812
127.0.0.1 - - [30/Mar/2023:17:13:43 +0530] "GET /BankingApplication/vendor/jquery/jquery-3.2.1.min.js HTTP/1.1" 404 815
127.0.0.1 - - [30/Mar/2023:17:13:43 +0530] "GET /BankingApplication/vendor/daterangepicker/moment.min.js HTTP/1.1" 404 818
127.0.0.1 - - [30/Mar/2023:17:13:43 +0530] "GET /BankingApplication/vendor/animsition/css/animsition.min.css HTTP/1.1" 404 826
127.0.0.1 - - [30/Mar/2023:17:13:43 +0530] "GET /BankingApplication/vendor/animsition/js/animsition.min.js HTTP/1.1" 404 824
127.0.0.1 - - [30/Mar/2023:17:13:43 +0530] "GET /BankingApplication/vendor/daterangepicker/daterangepicker.css HTTP/1.1" 404 824
127.0.0.1 - - [30/Mar/2023:17:13:43 +0530] "GET /BankingApplication/vendor/bootstrap/js/bootstrap.min.js HTTP/1.1" 404 822
127.0.0.1 - - [30/Mar/2023:17:13:43 +0530] "GET /BankingApplication/vendor/bootstrap/js/popper.js HTTP/1.1" 404 815
127.0.0.1 - - [30/Mar/2023:17:13:43 +0530] "GET /BankingApplication/vendor/select2/select2.min.js HTTP/1.1" 404 811
127.0.0.1 - - [30/Mar/2023:17:13:43 +0530] "GET /BankingApplication/vendor/animate/animate.css HTTP/1.1" 404 808
127.0.0.1 - - [30/Mar/2023:17:13:43 +0530] "GET /BankingApplication/vendor/daterangepicker/daterangepicker.js HTTP/1.1" 404 823
127.0.0.1 - - [30/Mar/2023:17:13:43 +0530] "GET /BankingApplication/vendor/css-hamburgers/hamburgers.min.css HTTP/1.1" 404 822
127.0.0.1 - - [30/Mar/2023:17:13:43 +0530] "GET /BankingApplication/vendor/countdowntime/countdowntime.js HTTP/1.1" 404 819
127.0.0.1 - - [30/Mar/2023:17:13:43 +0530] "GET /BankingApplication/vendor/bootstrap/js/bootstrap.min.js HTTP/1.1" 404 822
127.0.0.1 - - [30/Mar/2023:17:13:43 +0530] "GET /fonts/poppins/Poppins-Medium.ttf HTTP/1.1" 404 791
127.0.0.1 - - [30/Mar/2023:17:13:43 +0530] "GET /fonts/poppins/Poppins-Regular.ttf HTTP/1.1" 404 792
127.0.0.1 - - [30/Mar/2023:17:13:43 +0530] "GET /BankingApplication/vendor/select2/select2.min.js HTTP/1.1" 404 811
127.0.0.1 - - [30/Mar/2023:17:13:43 +0530] "GET /BankingApplication/vendor/daterangepicker/moment.min.js HTTP/1.1" 404 818
127.0.0.1 - - [30/Mar/2023:17:13:43 +0530] "GET /BankingApplication/vendor/daterangepicker/daterangepicker.js HTTP/1.1" 404 823
127.0.0.1 - - [30/Mar/2023:17:13:43 +0530] "GET /BankingApplication/vendor/countdowntime/countdowntime.js HTTP/1.1" 404 819
127.0.0.1 - - [30/Mar/2023:17:14:15 +0530] "GET /BankingApplication/index.jsp HTTP/1.1" 200 105166
127.0.0.1 - - [30/Mar/2023:17:14:15 +0530] "GET /BankingApplication/vendor/bootstrap/css/bootstrap.min.css HTTP/1.1" 404 824
127.0.0.1 - - [30/Mar/2023:17:14:15 +0530] "GET /BankingApplication/fonts/font-awesome-4.7.0/css/font-awesome.min.css HTTP/1.1" 404 835
127.0.0.1 - - [30/Mar/2023:17:14:15 +0530] "GET /BankingApplication/vendor/css-hamburgers/hamburgers.min.css HTTP/1.1" 404 822
127.0.0.1 - - [30/Mar/2023:17:14:15 +0530] "GET /BankingApplication/vendor/animsition/css/animsition.min.css HTTP/1.1" 404 826
127.0.0.1 - - [30/Mar/2023:17:14:15 +0530] "GET /BankingApplication/vendor/select2/select2.min.css HTTP/1.1" 404 812
127.0.0.1 - - [30/Mar/2023:17:14:15 +0530] "GET /BankingApplication/vendor/bootstrap/js/popper.js HTTP/1.1" 404 815
127.0.0.1 - - [30/Mar/2023:17:14:15 +0530] "GET /BankingApplication/fonts/iconic/css/material-design-iconic-font.min.css HTTP/1.1" 404 838
127.0.0.1 - - [30/Mar/2023:17:14:15 +0530] "GET /BankingApplication/vendor/animate/animate.css HTTP/1.1" 404 808
127.0.0.1 - - [30/Mar/2023:17:14:15 +0530] "GET /BankingApplication/vendor/jquery/jquery-3.2.1.min.js HTTP/1.1" 404 815
127.0.0.1 - - [30/Mar/2023:17:14:15 +0530] "GET /BankingApplication/vendor/animsition/js/animsition.min.js HTTP/1.1" 404 824
127.0.0.1 - - [30/Mar/2023:17:14:15 +0530] "GET /BankingApplication/vendor/bootstrap/js/bootstrap.min.js HTTP/1.1" 404 822
127.0.0.1 - - [30/Mar/2023:17:14:15 +0530] "GET /BankingApplication/vendor/daterangepicker/daterangepicker.css HTTP/1.1" 404 824
127.0.0.1 - - [30/Mar/2023:17:14:15 +0530] "GET /BankingApplication/vendor/select2/select2.min.js HTTP/1.1" 404 811
127.0.0.1 - - [30/Mar/2023:17:14:15 +0530] "GET /BankingApplication/vendor/daterangepicker/daterangepicker.js HTTP/1.1" 404 823
127.0.0.1 - - [30/Mar/2023:17:14:15 +0530] "GET /BankingApplication/vendor/daterangepicker/moment.min.js HTTP/1.1" 404 818
127.0.0.1 - - [30/Mar/2023:17:14:15 +0530] "GET /BankingApplication/vendor/countdowntime/countdowntime.js HTTP/1.1" 404 819
127.0.0.1 - - [30/Mar/2023:17:14:16 +0530] "GET /BankingApplication/vendor/bootstrap/js/popper.js HTTP/1.1" 404 815
127.0.0.1 - - [30/Mar/2023:17:14:16 +0530] "GET /fonts/poppins/Poppins-Regular.ttf HTTP/1.1" 404 792
127.0.0.1 - - [30/Mar/2023:17:14:16 +0530] "GET /fonts/poppins/Poppins-Medium.ttf HTTP/1.1" 404 791
127.0.0.1 - - [30/Mar/2023:17:14:16 +0530] "GET /BankingApplication/vendor/bootstrap/js/bootstrap.min.js HTTP/1.1" 404 822
127.0.0.1 - - [30/Mar/2023:17:14:16 +0530] "GET /BankingApplication/vendor/select2/select2.min.js HTTP/1.1" 404 811
127.0.0.1 - - [30/Mar/2023:17:14:16 +0530] "GET /BankingApplication/vendor/daterangepicker/moment.min.js HTTP/1.1" 404 818
127.0.0.1 - - [30/Mar/2023:17:14:16 +0530] "GET /BankingApplication/vendor/daterangepicker/daterangepicker.js HTTP/1.1" 404 823
127.0.0.1 - - [30/Mar/2023:17:14:16 +0530] "GET /BankingApplication/vendor/countdowntime/countdowntime.js HTTP/1.1" 404 819
127.0.0.1 - - [30/Mar/2023:17:14:33 +0530] "GET /BankingApplication/index.jsp HTTP/1.1" 200 105166
127.0.0.1 - - [30/Mar/2023:17:14:33 +0530] "GET /BankingApplication/vendor/bootstrap/css/bootstrap.min.css HTTP/1.1" 404 824
127.0.0.1 - - [30/Mar/2023:17:14:33 +0530] "GET /BankingApplication/fonts/iconic/css/material-design-iconic-font.min.css HTTP/1.1" 404 838
127.0.0.1 - - [30/Mar/2023:17:14:33 +0530] "GET /BankingApplication/fonts/font-awesome-4.7.0/css/font-awesome.min.css HTTP/1.1" 404 835
127.0.0.1 - - [30/Mar/2023:17:14:33 +0530] "GET /BankingApplication/vendor/animsition/css/animsition.min.css HTTP/1.1" 404 826
127.0.0.1 - - [30/Mar/2023:17:14:33 +0530] "GET /BankingApplication/vendor/animate/animate.css HTTP/1.1" 404 808
127.0.0.1 - - [30/Mar/2023:17:14:33 +0530] "GET /BankingApplication/vendor/css-hamburgers/hamburgers.min.css HTTP/1.1" 404 822
127.0.0.1 - - [30/Mar/2023:17:14:33 +0530] "GET /BankingApplication/vendor/select2/select2.min.css HTTP/1.1" 404 812
127.0.0.1 - - [30/Mar/2023:17:14:33 +0530] "GET /BankingApplication/vendor/daterangepicker/daterangepicker.css HTTP/1.1" 404 824
127.0.0.1 - - [30/Mar/2023:17:14:33 +0530] "GET /BankingApplication/vendor/bootstrap/js/popper.js HTTP/1.1" 404 815
127.0.0.1 - - [30/Mar/2023:17:14:33 +0530] "GET /BankingApplication/vendor/animsition/js/animsition.min.js HTTP/1.1" 404 824
127.0.0.1 - - [30/Mar/2023:17:14:33 +0530] "GET /BankingApplication/vendor/bootstrap/js/bootstrap.min.js HTTP/1.1" 404 822
127.0.0.1 - - [30/Mar/2023:17:14:33 +0530] "GET /BankingApplication/vendor/select2/select2.min.js HTTP/1.1" 404 811
127.0.0.1 - - [30/Mar/2023:17:14:33 +0530] "GET /BankingApplication/vendor/jquery/jquery-3.2.1.min.js HTTP/1.1" 404 815
127.0.0.1 - - [30/Mar/2023:17:14:33 +0530] "GET /BankingApplication/vendor/daterangepicker/moment.min.js HTTP/1.1" 404 818
127.0.0.1 - - [30/Mar/2023:17:14:33 +0530] "GET /BankingApplication/vendor/countdowntime/countdowntime.js HTTP/1.1" 404 819
127.0.0.1 - - [30/Mar/2023:17:14:33 +0530] "GET /BankingApplication/vendor/daterangepicker/daterangepicker.js HTTP/1.1" 404 823
127.0.0.1 - - [30/Mar/2023:17:14:33 +0530] "GET /BankingApplication/vendor/animsition/js/animsition.min.js HTTP/1.1" 404 824
127.0.0.1 - - [30/Mar/2023:17:14:33 +0530] "GET /BankingApplication/vendor/bootstrap/js/popper.js HTTP/1.1" 404 815
127.0.0.1 - - [30/Mar/2023:17:14:33 +0530] "GET /fonts/poppins/Poppins-Regular.ttf HTTP/1.1" 404 792
127.0.0.1 - - [30/Mar/2023:17:14:33 +0530] "GET /fonts/poppins/Poppins-Medium.ttf HTTP/1.1" 404 791
127.0.0.1 - - [30/Mar/2023:17:14:33 +0530] "GET /BankingApplication/vendor/bootstrap/js/bootstrap.min.js HTTP/1.1" 404 822
127.0.0.1 - - [30/Mar/2023:17:14:33 +0530] "GET /BankingApplication/vendor/select2/select2.min.js HTTP/1.1" 404 811
127.0.0.1 - - [30/Mar/2023:17:14:33 +0530] "GET /BankingApplication/vendor/daterangepicker/moment.min.js HTTP/1.1" 404 818
127.0.0.1 - - [30/Mar/2023:17:14:33 +0530] "GET /BankingApplication/vendor/daterangepicker/daterangepicker.js HTTP/1.1" 404 823
127.0.0.1 - - [30/Mar/2023:17:14:33 +0530] "GET /BankingApplication/vendor/countdowntime/countdowntime.js HTTP/1.1" 404 819
127.0.0.1 - - [30/Mar/2023:17:16:10 +0530] "GET /BankingApplication/index.jsp HTTP/1.1" 200 105182
127.0.0.1 - - [30/Mar/2023:17:16:10 +0530] "GET /BankingApplication/vendor/bootstrap/css/bootstrap.min.css HTTP/1.1" 404 824
127.0.0.1 - - [30/Mar/2023:17:16:10 +0530] "GET /BankingApplication/vendor/animate/animate.css HTTP/1.1" 404 808
127.0.0.1 - - [30/Mar/2023:17:16:10 +0530] "GET /BankingApplication/vendor/select2/select2.min.css HTTP/1.1" 404 812
127.0.0.1 - - [30/Mar/2023:17:16:10 +0530] "GET /BankingApplication/vendor/css-hamburgers/hamburgers.min.css HTTP/1.1" 404 822
127.0.0.1 - - [30/Mar/2023:17:16:10 +0530] "GET /BankingApplication/vendor/animsition/css/animsition.min.css HTTP/1.1" 404 826
127.0.0.1 - - [30/Mar/2023:17:16:10 +0530] "GET /BankingApplication/fonts/font-awesome-4.7.0/css/font-awesome.min.css HTTP/1.1" 404 835
127.0.0.1 - - [30/Mar/2023:17:16:10 +0530] "GET /BankingApplication/vendor/daterangepicker/daterangepicker.css HTTP/1.1" 404 824
127.0.0.1 - - [30/Mar/2023:17:16:10 +0530] "GET /BankingApplication/fonts/iconic/css/material-design-iconic-font.min.css HTTP/1.1" 404 838
127.0.0.1 - - [30/Mar/2023:17:16:10 +0530] "GET /BankingApplication/vendor/jquery/jquery-3.2.1.min.js HTTP/1.1" 404 815
127.0.0.1 - - [30/Mar/2023:17:16:10 +0530] "GET /BankingApplication/vendor/bootstrap/js/bootstrap.min.js HTTP/1.1" 404 822
127.0.0.1 - - [30/Mar/2023:17:16:10 +0530] "GET /BankingApplication/vendor/animsition/js/animsition.min.js HTTP/1.1" 404 824
127.0.0.1 - - [30/Mar/2023:17:16:10 +0530] "GET /BankingApplication/vendor/bootstrap/js/popper.js HTTP/1.1" 404 815
127.0.0.1 - - [30/Mar/2023:17:16:10 +0530] "GET /BankingApplication/vendor/daterangepicker/moment.min.js HTTP/1.1" 404 818
127.0.0.1 - - [30/Mar/2023:17:16:10 +0530] "GET /BankingApplication/vendor/countdowntime/countdowntime.js HTTP/1.1" 404 819
127.0.0.1 - - [30/Mar/2023:17:16:10 +0530] "GET /BankingApplication/vendor/select2/select2.min.js HTTP/1.1" 404 811
127.0.0.1 - - [30/Mar/2023:17:16:10 +0530] "GET /BankingApplication/vendor/daterangepicker/daterangepicker.js HTTP/1.1" 404 823
127.0.0.1 - - [30/Mar/2023:17:16:10 +0530] "GET /BankingApplication/vendor/animsition/js/animsition.min.js HTTP/1.1" 404 824
127.0.0.1 - - [30/Mar/2023:17:16:10 +0530] "GET /fonts/poppins/Poppins-Medium.ttf HTTP/1.1" 404 791
127.0.0.1 - - [30/Mar/2023:17:16:10 +0530] "GET /fonts/poppins/Poppins-Regular.ttf HTTP/1.1" 404 792
127.0.0.1 - - [30/Mar/2023:17:16:10 +0530] "GET /BankingApplication/vendor/bootstrap/js/popper.js HTTP/1.1" 404 815
127.0.0.1 - - [30/Mar/2023:17:16:10 +0530] "GET /BankingApplication/vendor/bootstrap/js/bootstrap.min.js HTTP/1.1" 404 822
127.0.0.1 - - [30/Mar/2023:17:16:10 +0530] "GET /BankingApplication/vendor/select2/select2.min.js HTTP/1.1" 404 811
127.0.0.1 - - [30/Mar/2023:17:16:10 +0530] "GET /BankingApplication/vendor/daterangepicker/moment.min.js HTTP/1.1" 404 818
127.0.0.1 - - [30/Mar/2023:17:16:10 +0530] "GET /BankingApplication/vendor/daterangepicker/daterangepicker.js HTTP/1.1" 404 823
127.0.0.1 - - [30/Mar/2023:17:16:10 +0530] "GET /BankingApplication/vendor/countdowntime/countdowntime.js HTTP/1.1" 404 819
127.0.0.1 - - [30/Mar/2023:17:18:20 +0530] "GET /BankingApplication/index.jsp HTTP/1.1" 200 104842
127.0.0.1 - - [30/Mar/2023:17:18:20 +0530] "GET /BankingApplication/vendor/bootstrap/css/bootstrap.min.css HTTP/1.1" 404 824
127.0.0.1 - - [30/Mar/2023:17:18:20 +0530] "GET /BankingApplication/fonts/font-awesome-4.7.0/css/font-awesome.min.css HTTP/1.1" 404 835
127.0.0.1 - - [30/Mar/2023:17:18:20 +0530] "GET /BankingApplication/fonts/iconic/css/material-design-iconic-font.min.css HTTP/1.1" 404 838
127.0.0.1 - - [30/Mar/2023:17:18:20 +0530] "GET /BankingApplication/vendor/animsition/css/animsition.min.css HTTP/1.1" 404 826
127.0.0.1 - - [30/Mar/2023:17:18:20 +0530] "GET /BankingApplication/vendor/css-hamburgers/hamburgers.min.css HTTP/1.1" 404 822
127.0.0.1 - - [30/Mar/2023:17:18:20 +0530] "GET /BankingApplication/vendor/daterangepicker/daterangepicker.css HTTP/1.1" 404 824
127.0.0.1 - - [30/Mar/2023:17:18:20 +0530] "GET /BankingApplication/vendor/select2/select2.min.css HTTP/1.1" 404 812
127.0.0.1 - - [30/Mar/2023:17:18:20 +0530] "GET /BankingApplication/vendor/animate/animate.css HTTP/1.1" 404 808
127.0.0.1 - - [30/Mar/2023:17:18:20 +0530] "GET /BankingApplication/vendor/jquery/jquery-3.2.1.min.js HTTP/1.1" 404 815
127.0.0.1 - - [30/Mar/2023:17:18:20 +0530] "GET /BankingApplication/vendor/animsition/js/animsition.min.js HTTP/1.1" 404 824
127.0.0.1 - - [30/Mar/2023:17:18:20 +0530] "GET /BankingApplication/vendor/bootstrap/js/popper.js HTTP/1.1" 404 815
127.0.0.1 - - [30/Mar/2023:17:18:20 +0530] "GET /BankingApplication/vendor/bootstrap/js/bootstrap.min.js HTTP/1.1" 404 822
127.0.0.1 - - [30/Mar/2023:17:18:20 +0530] "GET /BankingApplication/vendor/select2/select2.min.js HTTP/1.1" 404 811
127.0.0.1 - - [30/Mar/2023:17:18:20 +0530] "GET /BankingApplication/vendor/daterangepicker/moment.min.js HTTP/1.1" 404 818
127.0.0.1 - - [30/Mar/2023:17:18:20 +0530] "GET /BankingApplication/vendor/daterangepicker/daterangepicker.js HTTP/1.1" 404 823
127.0.0.1 - - [30/Mar/2023:17:18:20 +0530] "GET /BankingApplication/vendor/countdowntime/countdowntime.js HTTP/1.1" 404 819
127.0.0.1 - - [30/Mar/2023:17:18:20 +0530] "GET /BankingApplication/vendor/animsition/js/animsition.min.js HTTP/1.1" 404 824
127.0.0.1 - - [30/Mar/2023:17:18:20 +0530] "GET /fonts/poppins/Poppins-Regular.ttf HTTP/1.1" 404 792
127.0.0.1 - - [30/Mar/2023:17:18:20 +0530] "GET /fonts/poppins/Poppins-Medium.ttf HTTP/1.1" 404 791
127.0.0.1 - - [30/Mar/2023:17:18:20 +0530] "GET /BankingApplication/vendor/bootstrap/js/popper.js HTTP/1.1" 404 815
127.0.0.1 - - [30/Mar/2023:17:18:20 +0530] "GET /BankingApplication/vendor/bootstrap/js/bootstrap.min.js HTTP/1.1" 404 822
127.0.0.1 - - [30/Mar/2023:17:18:20 +0530] "GET /BankingApplication/vendor/select2/select2.min.js HTTP/1.1" 404 811
127.0.0.1 - - [30/Mar/2023:17:18:20 +0530] "GET /BankingApplication/vendor/daterangepicker/moment.min.js HTTP/1.1" 404 818
127.0.0.1 - - [30/Mar/2023:17:18:20 +0530] "GET /BankingApplication/vendor/daterangepicker/daterangepicker.js HTTP/1.1" 404 823
127.0.0.1 - - [30/Mar/2023:17:18:20 +0530] "GET /BankingApplication/vendor/countdowntime/countdowntime.js HTTP/1.1" 404 819
127.0.0.1 - - [30/Mar/2023:17:18:26 +0530] "GET /BankingApplication/signup.jsp HTTP/1.1" 200 105410
127.0.0.1 - - [30/Mar/2023:17:18:26 +0530] "GET /BankingApplication/fonts/font-awesome-4.7.0/css/font-awesome.min.css HTTP/1.1" 404 835
127.0.0.1 - - [30/Mar/2023:17:18:26 +0530] "GET /BankingApplication/fonts/iconic/css/material-design-iconic-font.min.css HTTP/1.1" 404 838
127.0.0.1 - - [30/Mar/2023:17:18:26 +0530] "GET /BankingApplication/vendor/animate/animate.css HTTP/1.1" 404 808
127.0.0.1 - - [30/Mar/2023:17:18:26 +0530] "GET /BankingApplication/vendor/bootstrap/css/bootstrap.min.css HTTP/1.1" 404 824
127.0.0.1 - - [30/Mar/2023:17:18:26 +0530] "GET /BankingApplication/vendor/css-hamburgers/hamburgers.min.css HTTP/1.1" 404 822
127.0.0.1 - - [30/Mar/2023:17:18:26 +0530] "GET /BankingApplication/vendor/animsition/css/animsition.min.css HTTP/1.1" 404 826
127.0.0.1 - - [30/Mar/2023:17:18:26 +0530] "GET /BankingApplication/vendor/select2/select2.min.css HTTP/1.1" 404 812
127.0.0.1 - - [30/Mar/2023:17:18:26 +0530] "GET /BankingApplication/vendor/daterangepicker/daterangepicker.css HTTP/1.1" 404 824
127.0.0.1 - - [30/Mar/2023:17:18:26 +0530] "GET /BankingApplication/vendor/jquery/jquery-3.2.1.min.js HTTP/1.1" 404 815
127.0.0.1 - - [30/Mar/2023:17:18:26 +0530] "GET /BankingApplication/vendor/bootstrap/js/bootstrap.min.js HTTP/1.1" 404 822
127.0.0.1 - - [30/Mar/2023:17:18:26 +0530] "GET /BankingApplication/vendor/bootstrap/js/popper.js HTTP/1.1" 404 815
127.0.0.1 - - [30/Mar/2023:17:18:26 +0530] "GET /BankingApplication/vendor/daterangepicker/moment.min.js HTTP/1.1" 404 818
127.0.0.1 - - [30/Mar/2023:17:18:26 +0530] "GET /BankingApplication/vendor/animsition/js/animsition.min.js HTTP/1.1" 404 824
127.0.0.1 - - [30/Mar/2023:17:18:26 +0530] "GET /BankingApplication/vendor/select2/select2.min.js HTTP/1.1" 404 811
127.0.0.1 - - [30/Mar/2023:17:18:26 +0530] "GET /BankingApplication/vendor/daterangepicker/daterangepicker.js HTTP/1.1" 404 823
127.0.0.1 - - [30/Mar/2023:17:18:26 +0530] "GET /BankingApplication/vendor/countdowntime/countdowntime.js HTTP/1.1" 404 819
127.0.0.1 - - [30/Mar/2023:17:18:26 +0530] "GET /BankingApplication/vendor/animsition/js/animsition.min.js HTTP/1.1" 404 824
127.0.0.1 - - [30/Mar/2023:17:18:26 +0530] "GET /fonts/poppins/Poppins-Regular.ttf HTTP/1.1" 404 792
127.0.0.1 - - [30/Mar/2023:17:18:26 +0530] "GET /fonts/poppins/Poppins-Medium.ttf HTTP/1.1" 404 791
127.0.0.1 - - [30/Mar/2023:17:18:26 +0530] "GET /BankingApplication/vendor/bootstrap/js/popper.js HTTP/1.1" 404 815
127.0.0.1 - - [30/Mar/2023:17:18:26 +0530] "GET /BankingApplication/vendor/bootstrap/js/bootstrap.min.js HTTP/1.1" 404 822
127.0.0.1 - - [30/Mar/2023:17:18:26 +0530] "GET /BankingApplication/vendor/select2/select2.min.js HTTP/1.1" 404 811
127.0.0.1 - - [30/Mar/2023:17:18:26 +0530] "GET /BankingApplication/vendor/daterangepicker/moment.min.js HTTP/1.1" 404 818
127.0.0.1 - - [30/Mar/2023:17:18:26 +0530] "GET /BankingApplication/vendor/daterangepicker/daterangepicker.js HTTP/1.1" 404 823
127.0.0.1 - - [30/Mar/2023:17:18:26 +0530] "GET /BankingApplication/vendor/countdowntime/countdowntime.js HTTP/1.1" 404 819
127.0.0.1 - - [30/Mar/2023:17:18:31 +0530] "GET /BankingApplication/index.jsp HTTP/1.1" 200 104842
127.0.0.1 - - [30/Mar/2023:17:18:31 +0530] "GET /BankingApplication/vendor/bootstrap/css/bootstrap.min.css HTTP/1.1" 404 824
127.0.0.1 - - [30/Mar/2023:17:18:31 +0530] "GET /BankingApplication/fonts/font-awesome-4.7.0/css/font-awesome.min.css HTTP/1.1" 404 835
127.0.0.1 - - [30/Mar/2023:17:18:31 +0530] "GET /BankingApplication/fonts/iconic/css/material-design-iconic-font.min.css HTTP/1.1" 404 838
127.0.0.1 - - [30/Mar/2023:17:18:31 +0530] "GET /BankingApplication/vendor/animate/animate.css HTTP/1.1" 404 808
127.0.0.1 - - [30/Mar/2023:17:18:31 +0530] "GET /BankingApplication/vendor/css-hamburgers/hamburgers.min.css HTTP/1.1" 404 822
127.0.0.1 - - [30/Mar/2023:17:18:31 +0530] "GET /BankingApplication/vendor/animsition/css/animsition.min.css HTTP/1.1" 404 826
127.0.0.1 - - [30/Mar/2023:17:18:31 +0530] "GET /BankingApplication/vendor/select2/select2.min.css HTTP/1.1" 404 812
127.0.0.1 - - [30/Mar/2023:17:18:31 +0530] "GET /BankingApplication/vendor/animsition/js/animsition.min.js HTTP/1.1" 404 824
127.0.0.1 - - [30/Mar/2023:17:18:31 +0530] "GET /BankingApplication/vendor/jquery/jquery-3.2.1.min.js HTTP/1.1" 404 815
127.0.0.1 - - [30/Mar/2023:17:18:31 +0530] "GET /BankingApplication/vendor/daterangepicker/daterangepicker.css HTTP/1.1" 404 824
127.0.0.1 - - [30/Mar/2023:17:18:31 +0530] "GET /BankingApplication/vendor/bootstrap/js/popper.js HTTP/1.1" 404 815
127.0.0.1 - - [30/Mar/2023:17:18:31 +0530] "GET /BankingApplication/vendor/select2/select2.min.js HTTP/1.1" 404 811
127.0.0.1 - - [30/Mar/2023:17:18:31 +0530] "GET /BankingApplication/vendor/bootstrap/js/bootstrap.min.js HTTP/1.1" 404 822
127.0.0.1 - - [30/Mar/2023:17:18:31 +0530] "GET /BankingApplication/vendor/daterangepicker/daterangepicker.js HTTP/1.1" 404 823
127.0.0.1 - - [30/Mar/2023:17:18:31 +0530] "GET /BankingApplication/vendor/daterangepicker/moment.min.js HTTP/1.1" 404 818
127.0.0.1 - - [30/Mar/2023:17:18:31 +0530] "GET /BankingApplication/vendor/countdowntime/countdowntime.js HTTP/1.1" 404 819
127.0.0.1 - - [30/Mar/2023:17:18:31 +0530] "GET /BankingApplication/vendor/bootstrap/js/popper.js HTTP/1.1" 404 815
127.0.0.1 - - [30/Mar/2023:17:18:31 +0530] "GET /fonts/poppins/Poppins-Medium.ttf HTTP/1.1" 404 791
127.0.0.1 - - [30/Mar/2023:17:18:31 +0530] "GET /fonts/poppins/Poppins-Regular.ttf HTTP/1.1" 404 792
127.0.0.1 - - [30/Mar/2023:17:18:31 +0530] "GET /BankingApplication/vendor/bootstrap/js/bootstrap.min.js HTTP/1.1" 404 822
127.0.0.1 - - [30/Mar/2023:17:18:31 +0530] "GET /BankingApplication/vendor/select2/select2.min.js HTTP/1.1" 404 811
127.0.0.1 - - [30/Mar/2023:17:18:31 +0530] "GET /BankingApplication/vendor/daterangepicker/moment.min.js HTTP/1.1" 404 818
127.0.0.1 - - [30/Mar/2023:17:18:31 +0530] "GET /BankingApplication/vendor/daterangepicker/daterangepicker.js HTTP/1.1" 404 823
127.0.0.1 - - [30/Mar/2023:17:18:31 +0530] "GET /BankingApplication/vendor/countdowntime/countdowntime.js HTTP/1.1" 404 819
127.0.0.1 - - [30/Mar/2023:17:19:39 +0530] "GET /BankingApplication/signup.jsp HTTP/1.1" 200 105176
127.0.0.1 - - [30/Mar/2023:17:19:39 +0530] "GET /BankingApplication/vendor/bootstrap/css/bootstrap.min.css HTTP/1.1" 404 824
127.0.0.1 - - [30/Mar/2023:17:19:39 +0530] "GET /BankingApplication/fonts/font-awesome-4.7.0/css/font-awesome.min.css HTTP/1.1" 404 835
127.0.0.1 - - [30/Mar/2023:17:19:39 +0530] "GET /BankingApplication/vendor/css-hamburgers/hamburgers.min.css HTTP/1.1" 404 822
127.0.0.1 - - [30/Mar/2023:17:19:39 +0530] "GET /BankingApplication/vendor/animsition/css/animsition.min.css HTTP/1.1" 404 826
127.0.0.1 - - [30/Mar/2023:17:19:39 +0530] "GET /BankingApplication/vendor/select2/select2.min.css HTTP/1.1" 404 812
127.0.0.1 - - [30/Mar/2023:17:19:39 +0530] "GET /BankingApplication/vendor/bootstrap/js/popper.js HTTP/1.1" 404 815
127.0.0.1 - - [30/Mar/2023:17:19:39 +0530] "GET /BankingApplication/vendor/daterangepicker/daterangepicker.css HTTP/1.1" 404 824
127.0.0.1 - - [30/Mar/2023:17:19:39 +0530] "GET /BankingApplication/vendor/animate/animate.css HTTP/1.1" 404 808
127.0.0.1 - - [30/Mar/2023:17:19:39 +0530] "GET /BankingApplication/vendor/jquery/jquery-3.2.1.min.js HTTP/1.1" 404 815
127.0.0.1 - - [30/Mar/2023:17:19:39 +0530] "GET /BankingApplication/fonts/iconic/css/material-design-iconic-font.min.css HTTP/1.1" 404 838
127.0.0.1 - - [30/Mar/2023:17:19:39 +0530] "GET /BankingApplication/vendor/animsition/js/animsition.min.js HTTP/1.1" 404 824
127.0.0.1 - - [30/Mar/2023:17:19:39 +0530] "GET /BankingApplication/vendor/bootstrap/js/bootstrap.min.js HTTP/1.1" 404 822
127.0.0.1 - - [30/Mar/2023:17:19:39 +0530] "GET /BankingApplication/vendor/daterangepicker/moment.min.js HTTP/1.1" 404 818
127.0.0.1 - - [30/Mar/2023:17:19:39 +0530] "GET /BankingApplication/vendor/select2/select2.min.js HTTP/1.1" 404 811
127.0.0.1 - - [30/Mar/2023:17:19:39 +0530] "GET /BankingApplication/vendor/daterangepicker/daterangepicker.js HTTP/1.1" 404 823
127.0.0.1 - - [30/Mar/2023:17:19:39 +0530] "GET /BankingApplication/vendor/countdowntime/countdowntime.js HTTP/1.1" 404 819
127.0.0.1 - - [30/Mar/2023:17:19:39 +0530] "GET /BankingApplication/vendor/bootstrap/js/popper.js HTTP/1.1" 404 815
127.0.0.1 - - [30/Mar/2023:17:19:39 +0530] "GET /BankingApplication/vendor/bootstrap/js/bootstrap.min.js HTTP/1.1" 404 822
127.0.0.1 - - [30/Mar/2023:17:19:39 +0530] "GET /fonts/poppins/Poppins-Regular.ttf HTTP/1.1" 404 792
127.0.0.1 - - [30/Mar/2023:17:19:39 +0530] "GET /fonts/poppins/Poppins-Medium.ttf HTTP/1.1" 404 791
127.0.0.1 - - [30/Mar/2023:17:19:39 +0530] "GET /BankingApplication/vendor/select2/select2.min.js HTTP/1.1" 404 811
127.0.0.1 - - [30/Mar/2023:17:19:39 +0530] "GET /BankingApplication/vendor/daterangepicker/moment.min.js HTTP/1.1" 404 818
127.0.0.1 - - [30/Mar/2023:17:19:39 +0530] "GET /BankingApplication/vendor/daterangepicker/daterangepicker.js HTTP/1.1" 404 823
127.0.0.1 - - [30/Mar/2023:17:19:39 +0530] "GET /BankingApplication/vendor/countdowntime/countdowntime.js HTTP/1.1" 404 819
127.0.0.1 - - [30/Mar/2023:17:22:15 +0530] "GET /BankingApplication/signup.jsp HTTP/1.1" 500 2156
127.0.0.1 - - [30/Mar/2023:17:24:21 +0530] "GET /BankingApplication/signup.jsp HTTP/1.1" 500 2156
127.0.0.1 - - [30/Mar/2023:17:24:56 +0530] "GET /BankingApplication/signup.jsp HTTP/1.1" 200 105398
127.0.0.1 - - [30/Mar/2023:17:24:56 +0530] "GET /BankingApplication/vendor/bootstrap/css/bootstrap.min.css HTTP/1.1" 404 824
127.0.0.1 - - [30/Mar/2023:17:24:56 +0530] "GET /BankingApplication/fonts/iconic/css/material-design-iconic-font.min.css HTTP/1.1" 404 838
127.0.0.1 - - [30/Mar/2023:17:24:56 +0530] "GET /BankingApplication/vendor/daterangepicker/daterangepicker.css HTTP/1.1" 404 824
127.0.0.1 - - [30/Mar/2023:17:24:56 +0530] "GET /BankingApplication/vendor/animate/animate.css HTTP/1.1" 404 808
127.0.0.1 - - [30/Mar/2023:17:24:56 +0530] "GET /BankingApplication/vendor/animsition/css/animsition.min.css HTTP/1.1" 404 826
127.0.0.1 - - [30/Mar/2023:17:24:56 +0530] "GET /BankingApplication/fonts/font-awesome-4.7.0/css/font-awesome.min.css HTTP/1.1" 404 835
127.0.0.1 - - [30/Mar/2023:17:24:56 +0530] "GET /BankingApplication/vendor/jquery/jquery-3.2.1.min.js HTTP/1.1" 404 815
127.0.0.1 - - [30/Mar/2023:17:24:56 +0530] "GET /BankingApplication/vendor/select2/select2.min.css HTTP/1.1" 404 812
127.0.0.1 - - [30/Mar/2023:17:24:56 +0530] "GET /BankingApplication/vendor/bootstrap/js/popper.js HTTP/1.1" 404 815
127.0.0.1 - - [30/Mar/2023:17:24:56 +0530] "GET /BankingApplication/vendor/animsition/js/animsition.min.js HTTP/1.1" 404 824
127.0.0.1 - - [30/Mar/2023:17:24:56 +0530] "GET /BankingApplication/vendor/bootstrap/js/bootstrap.min.js HTTP/1.1" 404 822
127.0.0.1 - - [30/Mar/2023:17:24:56 +0530] "GET /BankingApplication/vendor/select2/select2.min.js HTTP/1.1" 404 811
127.0.0.1 - - [30/Mar/2023:17:24:56 +0530] "GET /BankingApplication/vendor/daterangepicker/daterangepicker.js HTTP/1.1" 404 823
127.0.0.1 - - [30/Mar/2023:17:24:56 +0530] "GET /BankingApplication/vendor/css-hamburgers/hamburgers.min.css HTTP/1.1" 404 822
127.0.0.1 - - [30/Mar/2023:17:24:56 +0530] "GET /BankingApplication/vendor/countdowntime/countdowntime.js HTTP/1.1" 404 819
127.0.0.1 - - [30/Mar/2023:17:24:56 +0530] "GET /BankingApplication/vendor/daterangepicker/moment.min.js HTTP/1.1" 404 818
127.0.0.1 - - [30/Mar/2023:17:24:56 +0530] "GET /BankingApplication/vendor/bootstrap/js/popper.js HTTP/1.1" 404 815
127.0.0.1 - - [30/Mar/2023:17:24:56 +0530] "GET /fonts/poppins/Poppins-Medium.ttf HTTP/1.1" 404 791
127.0.0.1 - - [30/Mar/2023:17:24:56 +0530] "GET /fonts/poppins/Poppins-Regular.ttf HTTP/1.1" 404 792
127.0.0.1 - - [30/Mar/2023:17:24:56 +0530] "GET /BankingApplication/vendor/bootstrap/js/bootstrap.min.js HTTP/1.1" 404 822
127.0.0.1 - - [30/Mar/2023:17:24:56 +0530] "GET /BankingApplication/vendor/select2/select2.min.js HTTP/1.1" 404 811
127.0.0.1 - - [30/Mar/2023:17:24:56 +0530] "GET /BankingApplication/vendor/daterangepicker/moment.min.js HTTP/1.1" 404 818
127.0.0.1 - - [30/Mar/2023:17:24:56 +0530] "GET /BankingApplication/vendor/daterangepicker/daterangepicker.js HTTP/1.1" 404 823
127.0.0.1 - - [30/Mar/2023:17:24:56 +0530] "GET /BankingApplication/vendor/countdowntime/countdowntime.js HTTP/1.1" 404 819
127.0.0.1 - - [30/Mar/2023:17:25:59 +0530] "GET /BankingApplication/signup.jsp HTTP/1.1" 200 105405
127.0.0.1 - - [30/Mar/2023:17:25:59 +0530] "GET /BankingApplication/vendor/bootstrap/css/bootstrap.min.css HTTP/1.1" 404 824
127.0.0.1 - - [30/Mar/2023:17:25:59 +0530] "GET /BankingApplication/fonts/font-awesome-4.7.0/css/font-awesome.min.css HTTP/1.1" 404 835
127.0.0.1 - - [30/Mar/2023:17:25:59 +0530] "GET /BankingApplication/vendor/animsition/css/animsition.min.css HTTP/1.1" 404 826
127.0.0.1 - - [30/Mar/2023:17:25:59 +0530] "GET /BankingApplication/vendor/css-hamburgers/hamburgers.min.css HTTP/1.1" 404 822
127.0.0.1 - - [30/Mar/2023:17:25:59 +0530] "GET /BankingApplication/vendor/select2/select2.min.css HTTP/1.1" 404 812
127.0.0.1 - - [30/Mar/2023:17:25:59 +0530] "GET /BankingApplication/vendor/select2/select2.min.js HTTP/1.1" 404 811
127.0.0.1 - - [30/Mar/2023:17:25:59 +0530] "GET /BankingApplication/vendor/jquery/jquery-3.2.1.min.js HTTP/1.1" 404 815
127.0.0.1 - - [30/Mar/2023:17:25:59 +0530] "GET /BankingApplication/vendor/daterangepicker/daterangepicker.css HTTP/1.1" 404 824
127.0.0.1 - - [30/Mar/2023:17:25:59 +0530] "GET /BankingApplication/vendor/animsition/js/animsition.min.js HTTP/1.1" 404 824
127.0.0.1 - - [30/Mar/2023:17:25:59 +0530] "GET /BankingApplication/fonts/iconic/css/material-design-iconic-font.min.css HTTP/1.1" 404 838
127.0.0.1 - - [30/Mar/2023:17:25:59 +0530] "GET /BankingApplication/vendor/bootstrap/js/popper.js HTTP/1.1" 404 815
127.0.0.1 - - [30/Mar/2023:17:25:59 +0530] "GET /BankingApplication/vendor/countdowntime/countdowntime.js HTTP/1.1" 404 819
127.0.0.1 - - [30/Mar/2023:17:25:59 +0530] "GET /BankingApplication/vendor/daterangepicker/daterangepicker.js HTTP/1.1" 404 823
127.0.0.1 - - [30/Mar/2023:17:25:59 +0530] "GET /BankingApplication/vendor/bootstrap/js/bootstrap.min.js HTTP/1.1" 404 822
127.0.0.1 - - [30/Mar/2023:17:25:59 +0530] "GET /BankingApplication/vendor/daterangepicker/moment.min.js HTTP/1.1" 404 818
127.0.0.1 - - [30/Mar/2023:17:25:59 +0530] "GET /BankingApplication/vendor/animate/animate.css HTTP/1.1" 404 808
127.0.0.1 - - [30/Mar/2023:17:25:59 +0530] "GET /BankingApplication/vendor/select2/select2.min.js HTTP/1.1" 404 811
127.0.0.1 - - [30/Mar/2023:17:25:59 +0530] "GET /fonts/poppins/Poppins-Regular.ttf HTTP/1.1" 404 792
127.0.0.1 - - [30/Mar/2023:17:25:59 +0530] "GET /fonts/poppins/Poppins-Medium.ttf HTTP/1.1" 404 791
127.0.0.1 - - [30/Mar/2023:17:25:59 +0530] "GET /BankingApplication/vendor/daterangepicker/moment.min.js HTTP/1.1" 404 818
127.0.0.1 - - [30/Mar/2023:17:25:59 +0530] "GET /BankingApplication/vendor/daterangepicker/daterangepicker.js HTTP/1.1" 404 823
127.0.0.1 - - [30/Mar/2023:17:25:59 +0530] "GET /BankingApplication/vendor/countdowntime/countdowntime.js HTTP/1.1" 404 819
