127.0.0.1 - - [06/Jul/2023:11:08:24 +0530] "GET / HTTP/1.1" 404 752
127.0.0.1 - - [06/Jul/2023:11:08:25 +0530] "GET /searchapp/ HTTP/1.1" 302 -
127.0.0.1 - - [06/Jul/2023:11:08:27 +0530] "GET /searchapp/home HTTP/1.1" 500 3789
127.0.0.1 - - [06/Jul/2023:11:10:01 +0530] "GET /searchapp/home HTTP/1.1" 200 693
127.0.0.1 - - [06/Jul/2023:11:11:15 +0530] "GET /searchapp/search?searchbox=app+development HTTP/1.1" 302 -
127.0.0.1 - - [06/Jul/2023:11:11:22 +0530] "GET /searchapp/home HTTP/1.1" 200 693
127.0.0.1 - - [06/Jul/2023:11:11:38 +0530] "GET /searchapp/search?searchbox=android+development HTTP/1.1" 302 -
127.0.0.1 - - [06/Jul/2023:11:12:20 +0530] "GET /searchapp/search?searchbox=rgfggjfjsfgskg HTTP/1.1" 302 -
127.0.0.1 - - [06/Jul/2023:11:17:13 +0530] "GET /searchapp/home HTTP/1.1" 500 9896
127.0.0.1 - - [06/Jul/2023:11:17:26 +0530] "GET /searchapp/home HTTP/1.1" 500 9896
127.0.0.1 - - [06/Jul/2023:11:17:31 +0530] "GET /searchapp/ HTTP/1.1" 302 -
127.0.0.1 - - [06/Jul/2023:11:17:31 +0530] "GET /searchapp/home HTTP/1.1" 500 9896
127.0.0.1 - - [06/Jul/2023:11:18:23 +0530] "GET / HTTP/1.1" 404 752
127.0.0.1 - - [06/Jul/2023:11:18:24 +0530] "GET /searchapp/ HTTP/1.1" 302 -
127.0.0.1 - - [06/Jul/2023:11:18:25 +0530] "GET /searchapp/home HTTP/1.1" 500 9896
127.0.0.1 - - [06/Jul/2023:11:21:35 +0530] "GET /searchapp/home HTTP/1.1" 200 694
127.0.0.1 - - [06/Jul/2023:11:21:39 +0530] "GET /searchapp/search?searchbox=hbdhbbdb HTTP/1.1" 302 -
127.0.0.1 - - [06/Jul/2023:11:21:43 +0530] "GET /searchapp/home HTTP/1.1" 200 694
127.0.0.1 - - [06/Jul/2023:11:22:00 +0530] "GET /searchapp/home HTTP/1.1" 500 9896
127.0.0.1 - - [06/Jul/2023:11:22:23 +0530] "GET /searchapp/home HTTP/1.1" 200 807
127.0.0.1 - - [06/Jul/2023:11:23:17 +0530] "GET /searchapp/home HTTP/1.1" 200 807
127.0.0.1 - - [06/Jul/2023:11:23:31 +0530] "GET /searchapp/home HTTP/1.1" 200 894
127.0.0.1 - - [06/Jul/2023:11:23:31 +0530] "GET /searchapp/%3Cc:url%20value= HTTP/1.1" 404 683
127.0.0.1 - - [06/Jul/2023:11:24:03 +0530] "GET /searchapp/home HTTP/1.1" 200 894
127.0.0.1 - - [06/Jul/2023:11:24:04 +0530] "GET /searchapp/%3Cc:url%20value='/resources/images/ashish%20patil%20image.jpeg'/%3E HTTP/1.1" 404 683
127.0.0.1 - - [06/Jul/2023:11:24:15 +0530] "GET /searchapp/home HTTP/1.1" 200 894
127.0.0.1 - - [06/Jul/2023:11:24:15 +0530] "GET /searchapp/%3Cc:url%20value='/resources/images/ashish%20patil%20image.jpeg'/%3E HTTP/1.1" 404 683
127.0.0.1 - - [06/Jul/2023:11:24:32 +0530] "GET /searchapp/home HTTP/1.1" 500 9896
127.0.0.1 - - [06/Jul/2023:11:25:25 +0530] "GET /searchapp/home HTTP/1.1" 200 894
127.0.0.1 - - [06/Jul/2023:11:25:25 +0530] "GET /searchapp/%3Cc:url%20value='/resources/images/ashish%20patil%20image.jpeg'/%3E HTTP/1.1" 404 683
127.0.0.1 - - [06/Jul/2023:11:25:30 +0530] "GET /searchapp/search?searchbox=yddbdfvf HTTP/1.1" 302 -
127.0.0.1 - - [06/Jul/2023:11:25:33 +0530] "GET /searchapp/home HTTP/1.1" 200 894
127.0.0.1 - - [06/Jul/2023:11:25:34 +0530] "GET /searchapp/%3Cc:url%20value='/resources/images/ashish%20patil%20image.jpeg'/%3E HTTP/1.1" 404 683
127.0.0.1 - - [06/Jul/2023:11:27:03 +0530] "GET /searchapp/home HTTP/1.1" 200 893
127.0.0.1 - - [06/Jul/2023:11:27:03 +0530] "GET /searchapp/%3Cc:url%20value='/resources/images/ashish%20patil%20image.jpg'/%3E HTTP/1.1" 404 683
127.0.0.1 - - [06/Jul/2023:11:27:08 +0530] "GET /searchapp/home HTTP/1.1" 200 894
127.0.0.1 - - [06/Jul/2023:11:27:08 +0530] "GET /searchapp/%3Cc:url%20value='/resources/images/ashish%20patil%20image.jpeg'/%3E HTTP/1.1" 404 683
127.0.0.1 - - [06/Jul/2023:12:05:32 +0530] "GET / HTTP/1.1" 404 752
127.0.0.1 - - [06/Jul/2023:12:05:33 +0530] "GET /searchapp/ HTTP/1.1" 302 -
127.0.0.1 - - [06/Jul/2023:12:05:35 +0530] "GET /searchapp/home HTTP/1.1" 200 895
127.0.0.1 - - [06/Jul/2023:12:05:35 +0530] "GET /searchapp/%3Cc:url%20value='/resources/images/ashish%20patil%20image.jpeg'%20/%3E HTTP/1.1" 404 683
127.0.0.1 - - [06/Jul/2023:12:05:41 +0530] "GET /searchapp/fileform HTTP/1.1" 404 765
127.0.0.1 - - [06/Jul/2023:12:06:08 +0530] "GET /searchapp/fileform HTTP/1.1" 404 765
127.0.0.1 - - [06/Jul/2023:12:06:11 +0530] "GET /searchapp/home HTTP/1.1" 200 895
127.0.0.1 - - [06/Jul/2023:12:06:11 +0530] "GET /searchapp/%3Cc:url%20value='/resources/images/ashish%20patil%20image.jpeg'%20/%3E HTTP/1.1" 404 683
127.0.0.1 - - [06/Jul/2023:12:06:16 +0530] "GET /searchapp/fileform HTTP/1.1" 404 765
127.0.0.1 - - [06/Jul/2023:12:06:34 +0530] "GET /searchapp/fileform HTTP/1.1" 404 765
127.0.0.1 - - [06/Jul/2023:12:08:30 +0530] "GET / HTTP/1.1" 404 752
127.0.0.1 - - [06/Jul/2023:12:08:30 +0530] "GET /searchapp/ HTTP/1.1" 302 -
127.0.0.1 - - [06/Jul/2023:12:08:32 +0530] "GET /searchapp/home HTTP/1.1" 200 895
127.0.0.1 - - [06/Jul/2023:12:08:32 +0530] "GET /searchapp/%3Cc:url%20value='/resources/images/ashish%20patil%20image.jpeg'%20/%3E HTTP/1.1" 404 683
127.0.0.1 - - [06/Jul/2023:12:08:37 +0530] "GET /searchapp/fileform HTTP/1.1" 404 765
127.0.0.1 - - [06/Jul/2023:12:08:58 +0530] "GET /searchapp/fileform HTTP/1.1" 404 765
127.0.0.1 - - [06/Jul/2023:12:08:59 +0530] "GET /searchapp/fileform HTTP/1.1" 404 765
127.0.0.1 - - [06/Jul/2023:12:10:23 +0530] "GET /searchapp/fileform HTTP/1.1" 404 765
127.0.0.1 - - [06/Jul/2023:12:10:49 +0530] "GET /searchapp/fileform HTTP/1.1" 404 765
127.0.0.1 - - [06/Jul/2023:12:10:51 +0530] "GET /searchapp/fileform HTTP/1.1" 404 765
127.0.0.1 - - [06/Jul/2023:12:10:54 +0530] "GET /searchapp/home HTTP/1.1" 200 895
127.0.0.1 - - [06/Jul/2023:12:10:54 +0530] "GET /searchapp/%3Cc:url%20value='/resources/images/ashish%20patil%20image.jpeg'%20/%3E HTTP/1.1" 404 683
127.0.0.1 - - [06/Jul/2023:12:11:36 +0530] "GET /searchapp/home HTTP/1.1" 200 895
127.0.0.1 - - [06/Jul/2023:12:11:36 +0530] "GET /searchapp/%3Cc:url%20value='/resources/images/ashish%20patil%20image.jpeg'%20/%3E HTTP/1.1" 404 683
127.0.0.1 - - [06/Jul/2023:12:11:39 +0530] "GET /searchapp/fileform HTTP/1.1" 404 765
127.0.0.1 - - [06/Jul/2023:12:11:46 +0530] "GET /searchapp/home HTTP/1.1" 200 895
127.0.0.1 - - [06/Jul/2023:12:11:46 +0530] "GET /searchapp/%3Cc:url%20value='/resources/images/ashish%20patil%20image.jpeg'%20/%3E HTTP/1.1" 404 683
127.0.0.1 - - [06/Jul/2023:12:11:54 +0530] "GET /searchapp/fileform.jsp HTTP/1.1" 404 743
127.0.0.1 - - [06/Jul/2023:12:11:57 +0530] "GET /searchapp/fileform HTTP/1.1" 404 765
127.0.0.1 - - [06/Jul/2023:12:12:54 +0530] "GET /searchapp/home HTTP/1.1" 200 895
127.0.0.1 - - [06/Jul/2023:12:12:54 +0530] "GET /searchapp/%3Cc:url%20value='/resources/images/ashish%20patil%20image.jpeg'%20/%3E HTTP/1.1" 404 683
127.0.0.1 - - [06/Jul/2023:12:13:12 +0530] "GET /searchapp/fileform HTTP/1.1" 404 765
127.0.0.1 - - [06/Jul/2023:12:13:46 +0530] "GET /searchapp/home HTTP/1.1" 500 9896
127.0.0.1 - - [06/Jul/2023:12:13:51 +0530] "GET /searchapp/fileform HTTP/1.1" 404 765
127.0.0.1 - - [06/Jul/2023:12:14:03 +0530] "GET /searchapp/fileform HTTP/1.1" 404 765
127.0.0.1 - - [06/Jul/2023:12:14:06 +0530] "GET /searchapp/home HTTP/1.1" 200 894
127.0.0.1 - - [06/Jul/2023:12:14:06 +0530] "GET /searchapp/%3Cc:url%20value='/resources/images/ashish%20patil%20image.jpeg'/%3E HTTP/1.1" 404 683
127.0.0.1 - - [06/Jul/2023:12:14:18 +0530] "GET /searchapp/home HTTP/1.1" 200 882
127.0.0.1 - - [06/Jul/2023:12:14:19 +0530] "GET /searchapp/%3Cc:url%20value='/resources/images/ashish.jpeg'/%3E HTTP/1.1" 404 683
127.0.0.1 - - [06/Jul/2023:12:14:34 +0530] "GET /searchapp/home HTTP/1.1" 200 882
127.0.0.1 - - [06/Jul/2023:12:14:34 +0530] "GET /searchapp/%3Cc:url%20value= HTTP/1.1" 404 683
127.0.0.1 - - [06/Jul/2023:12:14:35 +0530] "GET /searchapp/home HTTP/1.1" 200 882
127.0.0.1 - - [06/Jul/2023:12:14:35 +0530] "GET /searchapp/%3Cc:url%20value= HTTP/1.1" 404 683
127.0.0.1 - - [06/Jul/2023:12:15:16 +0530] "GET /searchapp/search?searchbox=ehbfbe HTTP/1.1" 302 -
127.0.0.1 - - [06/Jul/2023:12:15:49 +0530] "GET /searchapp/fileform HTTP/1.1" 404 765
127.0.0.1 - - [06/Jul/2023:12:17:40 +0530] "GET /searchapp/fileform HTTP/1.1" 200 1234
127.0.0.1 - - [06/Jul/2023:12:29:22 +0530] "GET / HTTP/1.1" 404 752
127.0.0.1 - - [06/Jul/2023:12:29:23 +0530] "GET /mvSpring/ HTTP/1.1" 200 1858
127.0.0.1 - - [06/Jul/2023:12:29:23 +0530] "GET /favicon.ico HTTP/1.1" 404 763
127.0.0.1 - - [06/Jul/2023:12:29:31 +0530] "GET /mvSpring/search?query=nhbdbdshf HTTP/1.1" 500 8348
127.0.0.1 - - [06/Jul/2023:12:33:40 +0530] "GET /mvSpring/ HTTP/1.1" 200 1858
127.0.0.1 - - [06/Jul/2023:12:33:43 +0530] "GET /mvSpring/home HTTP/1.1" 404 683
127.0.0.1 - - [06/Jul/2023:12:33:57 +0530] "GET /mvSpring/contact HTTP/1.1" 404 683
127.0.0.1 - - [06/Jul/2023:12:36:00 +0530] "GET / HTTP/1.1" 404 752
127.0.0.1 - - [06/Jul/2023:12:36:01 +0530] "GET /com.crud/ HTTP/1.1" 200 1858
127.0.0.1 - - [06/Jul/2023:12:36:06 +0530] "GET /com.crud/search?query=mcnvmc HTTP/1.1" 500 8348
127.0.0.1 - - [06/Jul/2023:12:36:10 +0530] "GET /com.crud/ HTTP/1.1" 200 1858
127.0.0.1 - - [06/Jul/2023:12:36:12 +0530] "GET /com.crud/home HTTP/1.1" 404 683
127.0.0.1 - - [06/Jul/2023:12:36:14 +0530] "GET /com.crud/ HTTP/1.1" 200 1858
127.0.0.1 - - [06/Jul/2023:12:36:18 +0530] "GET /com.crud/contact HTTP/1.1" 404 683
127.0.0.1 - - [06/Jul/2023:12:36:20 +0530] "GET /com.crud/ HTTP/1.1" 200 1858
127.0.0.1 - - [06/Jul/2023:12:36:31 +0530] "GET /com.crud/home HTTP/1.1" 404 683
127.0.0.1 - - [06/Jul/2023:12:36:35 +0530] "GET /com.crud/ HTTP/1.1" 200 1858
127.0.0.1 - - [06/Jul/2023:12:36:38 +0530] "GET /com.crud/contact HTTP/1.1" 404 683
127.0.0.1 - - [06/Jul/2023:12:36:44 +0530] "GET /com.crud/ HTTP/1.1" 200 1858
127.0.0.1 - - [06/Jul/2023:12:36:47 +0530] "GET /com.crud/search?query=mcnvmcsdf HTTP/1.1" 404 683
127.0.0.1 - - [06/Jul/2023:12:36:51 +0530] "GET /com.crud/ HTTP/1.1" 200 1858
127.0.0.1 - - [06/Jul/2023:12:41:14 +0530] "GET / HTTP/1.1" 404 752
127.0.0.1 - - [06/Jul/2023:12:41:16 +0530] "GET /searchapp/ HTTP/1.1" 302 -
127.0.0.1 - - [06/Jul/2023:12:41:18 +0530] "GET /searchapp/home HTTP/1.1" 200 882
127.0.0.1 - - [06/Jul/2023:12:41:18 +0530] "GET /searchapp/%3Cc:url%20value='/resources/images/ashish.jpeg'/%3E HTTP/1.1" 404 683
127.0.0.1 - - [06/Jul/2023:12:41:25 +0530] "GET /searchapp/fileform HTTP/1.1" 200 1313
127.0.0.1 - - [06/Jul/2023:12:41:34 +0530] "GET /searchapp/fileform HTTP/1.1" 200 1286
127.0.0.1 - - [06/Jul/2023:12:52:19 +0530] "GET /searchapp/fileform HTTP/1.1" 200 1536
127.0.0.1 - - [06/Jul/2023:12:53:31 +0530] "GET /searchapp/fileform HTTP/1.1" 200 1601
127.0.0.1 - - [06/Jul/2023:13:03:07 +0530] "GET /searchapp/fileform HTTP/1.1" 200 1616
127.0.0.1 - - [06/Jul/2023:13:03:51 +0530] "GET /searchapp/fileform HTTP/1.1" 200 1616
127.0.0.1 - - [06/Jul/2023:13:04:01 +0530] "POST /searchapp/uploadImage HTTP/1.1" 404 683
127.0.0.1 - - [06/Jul/2023:13:04:35 +0530] "GET /searchapp/fileform HTTP/1.1" 200 1616
127.0.0.1 - - [06/Jul/2023:13:04:38 +0530] "POST /searchapp/uploadimage HTTP/1.1" 500 7031
127.0.0.1 - - [06/Jul/2023:14:09:39 +0530] "POST /searchapp/uploadimage HTTP/1.1" 500 7031
127.0.0.1 - - [06/Jul/2023:14:09:44 +0530] "GET /searchapp/fileform HTTP/1.1" 200 1616
127.0.0.1 - - [06/Jul/2023:14:09:46 +0530] "POST /searchapp/uploadimage HTTP/1.1" 500 7031
127.0.0.1 - - [06/Jul/2023:14:13:52 +0530] "GET /searchapp/fileform HTTP/1.1" 500 18939
127.0.0.1 - - [06/Jul/2023:14:13:55 +0530] "GET /searchapp/fileform HTTP/1.1" 404 683
127.0.0.1 - - [06/Jul/2023:14:13:57 +0530] "GET /searchapp/fileform HTTP/1.1" 404 683
127.0.0.1 - - [06/Jul/2023:14:14:00 +0530] "GET /searchapp/home HTTP/1.1" 404 683
127.0.0.1 - - [06/Jul/2023:14:14:32 +0530] "GET / HTTP/1.1" 404 752
127.0.0.1 - - [06/Jul/2023:14:14:33 +0530] "GET /searchapp/ HTTP/1.1" 302 -
127.0.0.1 - - [06/Jul/2023:14:14:35 +0530] "GET /searchapp/home HTTP/1.1" 200 882
127.0.0.1 - - [06/Jul/2023:14:14:35 +0530] "GET /searchapp/%3Cc:url%20value='/resources/images/ashish.jpeg'/%3E HTTP/1.1" 404 683
127.0.0.1 - - [06/Jul/2023:14:14:45 +0530] "GET /searchapp/fileform HTTP/1.1" 200 1616
127.0.0.1 - - [06/Jul/2023:14:14:58 +0530] "POST /searchapp/uploadimage HTTP/1.1" 500 7031
127.0.0.1 - - [06/Jul/2023:14:16:38 +0530] "GET /searchapp/fileform HTTP/1.1" 200 1616
127.0.0.1 - - [06/Jul/2023:14:16:47 +0530] "GET /springmvc3/home.jsp HTTP/1.1" 404 754
127.0.0.1 - - [06/Jul/2023:14:26:19 +0530] "POST /searchapp/uploadimage HTTP/1.1" 500 7031
127.0.0.1 - - [06/Jul/2023:14:26:21 +0530] "GET /searchapp/fileform HTTP/1.1" 200 1616
127.0.0.1 - - [06/Jul/2023:14:38:47 +0530] "GET / HTTP/1.1" 404 752
127.0.0.1 - - [06/Jul/2023:14:38:48 +0530] "GET /searchapp/ HTTP/1.1" 302 -
127.0.0.1 - - [06/Jul/2023:14:38:49 +0530] "GET /searchapp/home HTTP/1.1" 500 16192
127.0.0.1 - - [06/Jul/2023:14:39:16 +0530] "GET /searchapp/home HTTP/1.1" 200 882
127.0.0.1 - - [06/Jul/2023:14:39:16 +0530] "GET /searchapp/%3Cc:url%20value='/resources/images/ashish.jpeg'/%3E HTTP/1.1" 404 683
127.0.0.1 - - [06/Jul/2023:14:39:38 +0530] "GET /searchapp/home HTTP/1.1" 200 882
127.0.0.1 - - [06/Jul/2023:14:39:38 +0530] "GET /searchapp/%3Cc:url%20value='/resources/images/ashish.jpeg'/%3E HTTP/1.1" 404 683
127.0.0.1 - - [06/Jul/2023:14:39:39 +0530] "GET /searchapp/home HTTP/1.1" 200 882
127.0.0.1 - - [06/Jul/2023:14:39:39 +0530] "GET /searchapp/%3Cc:url%20value='/resources/images/ashish.jpeg'/%3E HTTP/1.1" 404 683
127.0.0.1 - - [06/Jul/2023:14:39:48 +0530] "GET /searchapp/fileform HTTP/1.1" 200 1616
127.0.0.1 - - [06/Jul/2023:14:39:57 +0530] "POST /searchapp/uploadimage HTTP/1.1" 500 7031
127.0.0.1 - - [06/Jul/2023:14:50:15 +0530] "GET /searchapp/fileform HTTP/1.1" 500 16192
127.0.0.1 - - [06/Jul/2023:14:50:17 +0530] "GET /searchapp/home HTTP/1.1" 500 16192
127.0.0.1 - - [06/Jul/2023:14:51:11 +0530] "GET / HTTP/1.1" 404 752
127.0.0.1 - - [06/Jul/2023:14:51:12 +0530] "GET /searchapp/ HTTP/1.1" 302 -
127.0.0.1 - - [06/Jul/2023:14:51:13 +0530] "GET /searchapp/home HTTP/1.1" 200 882
127.0.0.1 - - [06/Jul/2023:14:51:13 +0530] "GET /searchapp/%3Cc:url%20value='/resources/images/ashish.jpeg'/%3E HTTP/1.1" 404 683
127.0.0.1 - - [06/Jul/2023:14:51:42 +0530] "GET /searchapp/home HTTP/1.1" 200 882
127.0.0.1 - - [06/Jul/2023:14:51:42 +0530] "GET /searchapp/%3Cc:url%20value='/resources/images/ashish.jpeg'/%3E HTTP/1.1" 404 683
127.0.0.1 - - [06/Jul/2023:14:51:47 +0530] "GET /searchapp/home/55 HTTP/1.1" 404 683
127.0.0.1 - - [06/Jul/2023:14:52:03 +0530] "GET /searchapp/user/55 HTTP/1.1" 200 882
127.0.0.1 - - [06/Jul/2023:14:52:03 +0530] "GET /searchapp/user/%3Cc:url%20value='/resources/images/ashish.jpeg'/%3E HTTP/1.1" 404 683
127.0.0.1 - - [06/Jul/2023:14:53:34 +0530] "GET /searchapp/user/55/ashish HTTP/1.1" 200 882
127.0.0.1 - - [06/Jul/2023:14:53:34 +0530] "GET /searchapp/user/55/%3Cc:url%20value='/resources/images/ashish.jpeg'/%3E HTTP/1.1" 404 683
127.0.0.1 - - [06/Jul/2023:17:02:01 +0530] "GET / HTTP/1.1" 404 752
127.0.0.1 - - [06/Jul/2023:17:02:03 +0530] "GET /springcrud/ HTTP/1.1" 200 157
127.0.0.1 - - [06/Jul/2023:17:15:36 +0530] "GET / HTTP/1.1" 404 752
127.0.0.1 - - [06/Jul/2023:17:15:37 +0530] "GET /searchapp/ HTTP/1.1" 302 -
127.0.0.1 - - [06/Jul/2023:17:15:37 +0530] "GET /searchapp/home HTTP/1.1" 500 3495
127.0.0.1 - - [06/Jul/2023:17:39:37 +0530] "GET /springcrud/ HTTP/1.1" 200 157
127.0.0.1 - - [06/Jul/2023:17:39:39 +0530] "GET /springcrud/ HTTP/1.1" 200 157
127.0.0.1 - - [06/Jul/2023:17:39:43 +0530] "GET /springcrud/home HTTP/1.1" 404 771
127.0.0.1 - - [06/Jul/2023:17:40:19 +0530] "GET / HTTP/1.1" 404 752
127.0.0.1 - - [06/Jul/2023:17:40:20 +0530] "GET /springcrud/ HTTP/1.1" 200 157
127.0.0.1 - - [06/Jul/2023:17:40:27 +0530] "GET /springcrud/home HTTP/1.1" 404 771
127.0.0.1 - - [06/Jul/2023:17:41:45 +0530] "GET /springcrud/home HTTP/1.1" 404 771
127.0.0.1 - - [06/Jul/2023:17:41:47 +0530] "GET /springcrud/ HTTP/1.1" 200 157
127.0.0.1 - - [06/Jul/2023:17:41:52 +0530] "GET /springcrud/home HTTP/1.1" 404 771
127.0.0.1 - - [06/Jul/2023:17:42:09 +0530] "GET / HTTP/1.1" 404 752
127.0.0.1 - - [06/Jul/2023:17:42:10 +0530] "GET /springcrud/ HTTP/1.1" 200 157
127.0.0.1 - - [06/Jul/2023:17:42:15 +0530] "GET /springcrud/home HTTP/1.1" 404 771
127.0.0.1 - - [06/Jul/2023:17:42:23 +0530] "GET /springcrud/addEmp HTTP/1.1" 404 773
127.0.0.1 - - [06/Jul/2023:17:43:28 +0530] "GET /springcrud/addEmp HTTP/1.1" 404 773
127.0.0.1 - - [06/Jul/2023:17:43:29 +0530] "GET /springcrud/addEmp HTTP/1.1" 404 773
127.0.0.1 - - [06/Jul/2023:17:43:31 +0530] "GET /springcrud/home HTTP/1.1" 404 771
127.0.0.1 - - [06/Jul/2023:17:43:32 +0530] "GET /springcrud/home HTTP/1.1" 404 771
127.0.0.1 - - [06/Jul/2023:17:45:41 +0530] "GET /springcrud/home HTTP/1.1" 404 771
127.0.0.1 - - [06/Jul/2023:17:45:42 +0530] "GET /springcrud/home HTTP/1.1" 404 771
127.0.0.1 - - [06/Jul/2023:17:45:44 +0530] "GET /springcrud/ HTTP/1.1" 200 157
127.0.0.1 - - [06/Jul/2023:17:45:47 +0530] "GET /springcrud/home HTTP/1.1" 404 771
127.0.0.1 - - [06/Jul/2023:17:46:11 +0530] "GET / HTTP/1.1" 404 752
127.0.0.1 - - [06/Jul/2023:17:46:11 +0530] "GET /springcrud/ HTTP/1.1" 200 157
127.0.0.1 - - [06/Jul/2023:17:46:18 +0530] "GET /springcrud/home HTTP/1.1" 404 771
127.0.0.1 - - [06/Jul/2023:17:48:31 +0530] "GET /springcrud/home HTTP/1.1" 404 771
127.0.0.1 - - [06/Jul/2023:17:48:32 +0530] "GET /springcrud/home HTTP/1.1" 404 771
127.0.0.1 - - [06/Jul/2023:17:48:34 +0530] "GET /springcrud/ HTTP/1.1" 200 157
127.0.0.1 - - [06/Jul/2023:17:48:35 +0530] "GET /springcrud/ HTTP/1.1" 200 157
127.0.0.1 - - [06/Jul/2023:17:48:35 +0530] "GET /springcrud/ HTTP/1.1" 200 157
127.0.0.1 - - [06/Jul/2023:17:48:35 +0530] "GET /springcrud/ HTTP/1.1" 200 157
127.0.0.1 - - [06/Jul/2023:17:48:38 +0530] "GET /springcrud/home HTTP/1.1" 404 771
127.0.0.1 - - [06/Jul/2023:17:48:56 +0530] "GET / HTTP/1.1" 404 752
127.0.0.1 - - [06/Jul/2023:17:48:57 +0530] "GET /springcrud/ HTTP/1.1" 200 157
127.0.0.1 - - [06/Jul/2023:17:49:02 +0530] "GET /springcrud/home HTTP/1.1" 404 771
127.0.0.1 - - [06/Jul/2023:17:50:05 +0530] "GET /springcrud/home HTTP/1.1" 404 771
127.0.0.1 - - [06/Jul/2023:17:50:06 +0530] "GET /springcrud/home HTTP/1.1" 404 771
127.0.0.1 - - [06/Jul/2023:17:50:08 +0530] "GET /springcrud/ HTTP/1.1" 200 157
127.0.0.1 - - [06/Jul/2023:17:50:11 +0530] "GET /springcrud/home HTTP/1.1" 404 771
127.0.0.1 - - [06/Jul/2023:17:50:34 +0530] "GET / HTTP/1.1" 404 752
127.0.0.1 - - [06/Jul/2023:17:50:35 +0530] "GET /springcrud/ HTTP/1.1" 200 157
127.0.0.1 - - [06/Jul/2023:17:50:39 +0530] "GET /springcrud/home HTTP/1.1" 404 771
127.0.0.1 - - [06/Jul/2023:17:53:01 +0530] "GET / HTTP/1.1" 404 752
127.0.0.1 - - [06/Jul/2023:17:53:01 +0530] "GET /springcrud/ HTTP/1.1" 200 157
127.0.0.1 - - [06/Jul/2023:17:53:08 +0530] "GET /springcrud/home HTTP/1.1" 500 17753
127.0.0.1 - - [06/Jul/2023:17:57:43 +0530] "GET / HTTP/1.1" 404 752
127.0.0.1 - - [06/Jul/2023:17:57:43 +0530] "GET /springcrud/ HTTP/1.1" 404 767
127.0.0.1 - - [06/Jul/2023:17:57:51 +0530] "GET /springcrud/home HTTP/1.1" 404 771
127.0.0.1 - - [06/Jul/2023:17:57:55 +0530] "GET /springcrud/ HTTP/1.1" 404 767
127.0.0.1 - - [06/Jul/2023:17:58:08 +0530] "GET /springcrud/ HTTP/1.1" 404 767
127.0.0.1 - - [06/Jul/2023:17:58:09 +0530] "GET /springcrud/ HTTP/1.1" 404 767
127.0.0.1 - - [06/Jul/2023:17:58:13 +0530] "GET /springcrud/home HTTP/1.1" 404 771
127.0.0.1 - - [06/Jul/2023:17:58:25 +0530] "GET /springcrud/ HTTP/1.1" 404 767
127.0.0.1 - - [06/Jul/2023:17:58:26 +0530] "GET /springcrud/ HTTP/1.1" 404 767
127.0.0.1 - - [06/Jul/2023:17:58:30 +0530] "GET /springcrud/ HTTP/1.1" 404 767
127.0.0.1 - - [06/Jul/2023:17:58:33 +0530] "GET /springcrud/home HTTP/1.1" 404 771
127.0.0.1 - - [06/Jul/2023:17:58:39 +0530] "GET /springcrud/ HTTP/1.1" 404 767
127.0.0.1 - - [06/Jul/2023:17:58:45 +0530] "GET /springcrud/ HTTP/1.1" 404 767
127.0.0.1 - - [06/Jul/2023:17:58:54 +0530] "GET /springcrud/ HTTP/1.1" 404 767
127.0.0.1 - - [06/Jul/2023:17:58:58 +0530] "GET /springcrud/ HTTP/1.1" 404 767
127.0.0.1 - - [06/Jul/2023:17:58:59 +0530] "GET /springcrud/ HTTP/1.1" 404 767
127.0.0.1 - - [06/Jul/2023:17:59:01 +0530] "GET /springcrud/home HTTP/1.1" 404 771
127.0.0.1 - - [06/Jul/2023:17:59:06 +0530] "GET /springcrud/home HTTP/1.1" 404 771
127.0.0.1 - - [06/Jul/2023:17:59:09 +0530] "GET /springcrud/ HTTP/1.1" 404 767
127.0.0.1 - - [06/Jul/2023:17:59:19 +0530] "GET / HTTP/1.1" 404 752
127.0.0.1 - - [06/Jul/2023:17:59:19 +0530] "GET /springcrud/ HTTP/1.1" 200 157
127.0.0.1 - - [06/Jul/2023:17:59:23 +0530] "GET /springcrud/home HTTP/1.1" 404 771
127.0.0.1 - - [06/Jul/2023:18:00:05 +0530] "GET / HTTP/1.1" 404 752
127.0.0.1 - - [06/Jul/2023:18:00:06 +0530] "GET /springcrud/ HTTP/1.1" 404 767
127.0.0.1 - - [06/Jul/2023:18:03:03 +0530] "GET /springcrud/ HTTP/1.1" 404 767
