<?xml version="1.0" encoding="UTF-8"?>
<session version="1.0">
<refactoring comment="Copy element &apos;signup.jsp&apos; to &apos;webapp&apos;&#x0D;&#x0A;- Original project: &apos;FeesManagement&apos;&#x0D;&#x0A;- Destination element: &apos;webapp&apos;&#x0D;&#x0A;- Original element: &apos;signup.jsp&apos;" description="Copy file" element1="src/main/webapp/signup.jsp" files="1" flags="589830" folders="0" id="org.eclipse.jdt.ui.copy" policy="org.eclipse.jdt.ui.copyResources" stamp="1680176710689" target="/BankingApplication/src/main/webapp" units="0" version="1.0"/>
</session>